2x-8x3
[0.1269883949920931, 0.8716392956110786, 0.6231578831867023, 0.8688622531388676, 0.11871820450071112, 0.6321992147035413, 0.37421886519508685, 0.14050143998904033, 0.29839093065340133, 0.7368243483088456, 0.7362129468459927, 0.26610380230905906, 0.7360072370391997, 0.2611319975644993, 0.33858222910370445, 0.2602065491135002, 61.72498762735676, -17.300677990361557, -14.430361477500881, -246.4263007078945, -12.526480703580887, -25.510140095055167, 181.0786321487147, -24.816904662738768, -2.129734062401492, 182.40729671323876, -24.172455181370857, -7.329857236353613, -223.66942932674792, -18.046992868500908, -11.265656606300762, -245.4931532692386, -22.679558850934463, -4.458325350769299, -193.75287107609182, -16.56491856480152, -9.060864800520239, 73.26407985751916, -32.43956390705445, -39.73451999906615, -3.98320581287044, 19.206838551254954, 33.0825883165766, -0.45544940061537553, -0.6967364220869534, -0.07237079416790737, 0.18973939274684323, -0.17917064540493255, 0.3304751626733932, -0.1256967596302626, 0.22907273273546155, -0.07338813538384412, -0.10915135952737487, 0.124239473525675, 0.1724947090313976, 0.0523983128202022, 7746.378951253542, 0.3495732770778629, 0.6466056833422714]

# Prvih 2 * N1 parametara su težine w_i neurona tipa 1
# Zadnjih 2 * N1 parametara su parametri s_i neurona tipa 1