[423.0, 424.0, 423.0, 423.0, 422.0, 422.0, 422.0, 420.0, 419.0, 415.0, 412.0, 403.0, 400.0, 384.0, 379.0, 354.0, 361.0, 329.0, 346.0, 312.0, 333.0, 299.0, 321.0, 288.0, 311.0, 278.0, 300.0, 270.0, 290.0, 262.0, 277.0, 256.0, 267.0, 251.0, 243.0, 251.0, 236.0, 268.0, 234.0, 280.0, 231.0, 295.0, 231.0, 311.0, 231.0, 326.0, 231.0, 339.0, 232.0, 350.0, 236.0, 360.0, 241.0, 371.0, 247.0, 379.0, 254.0, 387.0, 264.0, 395.0, 275.0, 400.0, 286.0, 402.0, 297.0, 402.0, 306.0, 399.0, 315.0, 391.0, 327.0, 376.0, 345.0, 342.0, 361.0, 308.0, 374.0, 279.0, 383.0, 259.0, 391.0, 244.0, 396.0, 232.0, 402.0, 223.0, 406.0, 217.0, 412.0, 209.0, 415.0, 208.0, 417.0, 207.0, 420.0, 207.0, 421.0, 207.0, 422.0, 207.0, 423.0, 207.0, 424.0, 208.0, 427.0, 208.0] -> [1, 0, 0, 0, 0]
[246.0, 372.0, 245.0, 372.0, 243.0, 372.0, 242.0, 373.0, 240.0, 374.0, 238.0, 376.0, 236.0, 379.0, 234.0, 385.0, 234.0, 389.0, 233.0, 392.0, 233.0, 395.0, 233.0, 397.0, 233.0, 398.0, 234.0, 400.0, 237.0, 402.0, 240.0, 403.0, 243.0, 404.0, 248.0, 404.0, 252.0, 404.0, 255.0, 404.0, 259.0, 404.0, 262.0, 402.0, 266.0, 399.0, 275.0, 385.0, 290.0, 359.0, 307.0, 320.0, 319.0, 289.0, 326.0, 267.0, 330.0, 253.0, 333.0, 244.0, 335.0, 236.0, 338.0, 230.0, 341.0, 224.0, 344.0, 218.0, 349.0, 212.0, 354.0, 207.0, 359.0, 202.0, 371.0, 195.0, 377.0, 193.0, 383.0, 193.0, 387.0, 193.0, 393.0, 194.0, 398.0, 196.0, 400.0, 197.0, 402.0, 200.0, 404.0, 202.0, 405.0, 205.0, 407.0, 208.0, 408.0, 214.0, 408.0, 219.0, 408.0, 226.0, 408.0, 233.0, 408.0, 237.0, 408.0, 241.0, 407.0, 243.0, 406.0, 246.0, 403.0, 248.0, 399.0, 252.0, 393.0, 256.0, 388.0, 258.0, 382.0, 261.0, 376.0, 265.0, 372.0, 267.0, 369.0, 269.0, 366.0, 270.0, 363.0, 270.0, 361.0, 271.0, 360.0, 271.0, 359.0, 271.0, 359.0, 270.0, 360.0, 270.0, 361.0, 269.0, 364.0, 267.0, 368.0, 267.0, 375.0, 266.0, 383.0, 266.0, 390.0, 266.0, 398.0, 267.0, 405.0, 269.0, 411.0, 271.0, 416.0, 272.0, 420.0, 274.0, 422.0, 276.0, 424.0, 277.0, 425.0, 279.0, 426.0, 280.0, 427.0, 282.0, 428.0, 284.0, 429.0, 288.0, 431.0, 293.0, 431.0, 298.0, 431.0, 305.0, 431.0, 311.0, 431.0, 316.0, 431.0, 323.0, 428.0, 329.0, 424.0, 337.0, 418.0, 346.0, 412.0, 357.0, 404.0, 366.0, 397.0, 376.0, 390.0, 384.0, 382.0, 392.0, 375.0, 398.0, 367.0, 406.0, 359.0, 411.0, 350.0, 414.0, 342.0, 415.0, 335.0, 415.0, 330.0, 415.0, 324.0, 414.0, 320.0, 413.0, 315.0, 410.0, 313.0, 408.0, 310.0, 406.0, 308.0, 404.0, 307.0, 402.0, 305.0, 399.0, 304.0, 398.0, 304.0, 396.0, 304.0, 394.0] -> [0, 1, 0, 0, 0]
[271.0, 189.0, 272.0, 190.0, 279.0, 197.0, 287.0, 205.0, 303.0, 218.0, 321.0, 235.0, 339.0, 253.0, 354.0, 267.0, 363.0, 277.0, 371.0, 287.0, 376.0, 298.0, 381.0, 313.0, 381.0, 330.0, 381.0, 349.0, 379.0, 367.0, 374.0, 386.0, 371.0, 397.0, 368.0, 404.0, 366.0, 408.0, 364.0, 409.0, 362.0, 410.0, 360.0, 410.0, 357.0, 407.0, 352.0, 400.0, 342.0, 380.0, 329.0, 339.0, 311.0, 258.0, 308.0, 227.0, 306.0, 205.0, 306.0, 193.0, 306.0, 184.0, 307.0, 177.0, 308.0, 170.0, 310.0, 164.0, 313.0, 159.0, 315.0, 154.0, 316.0, 151.0, 316.0, 147.0, 317.0, 146.0, 318.0, 145.0, 318.0, 144.0, 318.0, 145.0, 318.0, 147.0, 318.0, 149.0, 318.0, 151.0, 318.0, 154.0, 318.0, 155.0, 318.0, 157.0, 318.0, 158.0, 318.0, 160.0, 318.0, 161.0, 318.0, 162.0, 319.0, 163.0, 320.0, 165.0, 322.0, 166.0, 325.0, 170.0, 332.0, 176.0, 340.0, 182.0, 350.0, 188.0, 358.0, 191.0, 365.0, 193.0, 370.0, 193.0, 374.0, 193.0, 376.0, 193.0, 377.0, 193.0, 378.0, 193.0, 379.0, 193.0, 379.0, 192.0, 380.0, 191.0, 380.0, 190.0, 380.0, 189.0, 380.0, 188.0] -> [0, 0, 1, 0, 0]
[314.0, 294.0, 314.0, 293.0, 314.0, 292.0, 314.0, 291.0, 314.0, 288.0, 311.0, 284.0, 307.0, 278.0, 302.0, 271.0, 293.0, 265.0, 283.0, 258.0, 274.0, 253.0, 264.0, 251.0, 250.0, 250.0, 245.0, 251.0, 242.0, 254.0, 238.0, 259.0, 234.0, 266.0, 231.0, 277.0, 229.0, 289.0, 227.0, 303.0, 227.0, 315.0, 229.0, 324.0, 232.0, 330.0, 235.0, 334.0, 241.0, 338.0, 251.0, 342.0, 261.0, 345.0, 270.0, 347.0, 278.0, 349.0, 285.0, 349.0, 292.0, 349.0, 298.0, 346.0, 303.0, 342.0, 309.0, 334.0, 317.0, 321.0, 328.0, 304.0, 346.0, 261.0, 353.0, 242.0, 357.0, 226.0, 359.0, 208.0, 365.0, 172.0, 368.0, 159.0, 372.0, 146.0, 377.0, 136.0, 381.0, 130.0, 385.0, 126.0, 390.0, 121.0, 397.0, 118.0, 404.0, 116.0, 409.0, 116.0, 417.0, 116.0, 424.0, 117.0, 430.0, 121.0, 435.0, 124.0, 439.0, 127.0, 441.0, 129.0, 442.0, 130.0, 443.0, 131.0, 443.0, 134.0, 443.0, 136.0, 443.0, 138.0, 443.0, 140.0, 443.0, 141.0, 442.0, 144.0, 441.0, 144.0, 440.0, 146.0, 438.0, 146.0, 436.0, 147.0, 435.0, 147.0, 434.0, 147.0, 434.0, 148.0, 433.0, 148.0] -> [0, 0, 0, 1, 0]
[366.0, 174.0, 365.0, 174.0, 362.0, 173.0, 355.0, 170.0, 344.0, 168.0, 330.0, 164.0, 312.0, 163.0, 297.0, 163.0, 284.0, 165.0, 273.0, 171.0, 263.0, 178.0, 255.0, 186.0, 236.0, 226.0, 232.0, 239.0, 230.0, 250.0, 230.0, 256.0, 230.0, 258.0, 230.0, 259.0, 236.0, 261.0, 246.0, 262.0, 261.0, 262.0, 278.0, 261.0, 293.0, 258.0, 307.0, 256.0, 316.0, 254.0, 323.0, 253.0, 327.0, 252.0, 329.0, 252.0, 330.0, 252.0, 326.0, 252.0, 322.0, 252.0, 316.0, 252.0, 273.0, 262.0, 254.0, 267.0, 237.0, 272.0, 223.0, 277.0, 212.0, 281.0, 204.0, 285.0, 198.0, 289.0, 193.0, 291.0, 191.0, 294.0, 189.0, 295.0, 189.0, 297.0, 188.0, 299.0, 188.0, 301.0, 188.0, 304.0, 188.0, 307.0, 188.0, 311.0, 190.0, 318.0, 193.0, 324.0, 195.0, 330.0, 198.0, 334.0, 202.0, 338.0, 207.0, 343.0, 215.0, 348.0, 227.0, 354.0, 238.0, 359.0, 247.0, 364.0, 257.0, 367.0, 264.0, 370.0, 273.0, 373.0, 281.0, 375.0, 291.0, 379.0, 300.0, 380.0, 309.0, 380.0, 317.0, 380.0, 335.0, 380.0, 342.0, 380.0, 349.0, 377.0, 354.0, 375.0, 360.0, 373.0, 362.0, 371.0, 365.0, 370.0, 365.0, 369.0, 366.0, 369.0] -> [0, 0, 0, 0, 1]
[398.0, 346.0, 397.0, 345.0, 396.0, 339.0, 391.0, 325.0, 383.0, 300.0, 367.0, 263.0, 352.0, 235.0, 335.0, 210.0, 319.0, 192.0, 296.0, 175.0, 270.0, 162.0, 246.0, 154.0, 226.0, 153.0, 209.0, 153.0, 197.0, 155.0, 186.0, 162.0, 177.0, 168.0, 171.0, 178.0, 165.0, 189.0, 160.0, 203.0, 159.0, 216.0, 158.0, 235.0, 158.0, 254.0, 167.0, 289.0, 171.0, 295.0, 177.0, 301.0, 184.0, 305.0, 195.0, 308.0, 205.0, 309.0, 215.0, 309.0, 226.0, 307.0, 236.0, 301.0, 246.0, 293.0, 256.0, 283.0, 266.0, 271.0, 275.0, 259.0, 287.0, 245.0, 300.0, 226.0, 314.0, 204.0, 329.0, 180.0, 337.0, 162.0, 345.0, 151.0, 350.0, 142.0, 354.0, 136.0, 359.0, 132.0, 365.0, 128.0, 369.0, 127.0, 374.0, 126.0, 378.0, 126.0, 383.0, 126.0, 389.0, 127.0, 395.0, 128.0, 403.0, 129.0, 407.0, 130.0, 408.0, 130.0, 409.0, 131.0, 410.0, 131.0, 410.0, 132.0] -> [1, 0, 0, 0, 0]
[200.0, 291.0, 200.0, 292.0, 200.0, 293.0, 199.0, 293.0, 198.0, 295.0, 197.0, 296.0, 197.0, 297.0, 195.0, 299.0, 194.0, 302.0, 193.0, 305.0, 191.0, 310.0, 191.0, 313.0, 191.0, 316.0, 190.0, 319.0, 190.0, 320.0, 191.0, 323.0, 192.0, 325.0, 195.0, 327.0, 199.0, 330.0, 205.0, 332.0, 209.0, 333.0, 216.0, 333.0, 222.0, 331.0, 228.0, 326.0, 238.0, 311.0, 254.0, 277.0, 272.0, 227.0, 290.0, 178.0, 303.0, 129.0, 314.0, 97.0, 323.0, 74.0, 328.0, 61.0, 334.0, 54.0, 338.0, 49.0, 342.0, 45.0, 348.0, 43.0, 354.0, 43.0, 366.0, 43.0, 373.0, 47.0, 379.0, 49.0, 385.0, 53.0, 391.0, 56.0, 398.0, 61.0, 403.0, 63.0, 405.0, 66.0, 407.0, 67.0, 408.0, 70.0, 409.0, 73.0, 409.0, 76.0, 408.0, 83.0, 404.0, 90.0, 399.0, 97.0, 391.0, 105.0, 378.0, 113.0, 367.0, 120.0, 355.0, 124.0, 345.0, 128.0, 337.0, 129.0, 333.0, 129.0, 330.0, 130.0, 328.0, 130.0, 331.0, 130.0, 334.0, 130.0, 337.0, 130.0, 341.0, 130.0, 345.0, 130.0, 352.0, 130.0, 359.0, 130.0, 366.0, 130.0, 372.0, 131.0, 381.0, 133.0, 388.0, 134.0, 394.0, 137.0, 398.0, 139.0, 401.0, 141.0, 405.0, 143.0, 407.0, 147.0, 410.0, 150.0, 413.0, 155.0, 417.0, 162.0, 420.0, 171.0, 423.0, 182.0, 426.0, 197.0, 426.0, 211.0, 426.0, 224.0, 426.0, 236.0, 423.0, 250.0, 420.0, 262.0, 416.0, 274.0, 410.0, 287.0, 403.0, 298.0, 395.0, 309.0, 387.0, 317.0, 377.0, 326.0, 362.0, 334.0, 345.0, 339.0, 332.0, 341.0, 320.0, 341.0, 295.0, 330.0, 284.0, 322.0, 275.0, 315.0, 269.0, 309.0, 265.0, 305.0, 263.0, 302.0, 261.0, 301.0, 261.0, 300.0, 261.0, 299.0, 261.0, 298.0, 261.0, 297.0] -> [0, 1, 0, 0, 0]
[272.0, 183.0, 275.0, 184.0, 284.0, 192.0, 294.0, 202.0, 308.0, 216.0, 320.0, 230.0, 331.0, 243.0, 340.0, 255.0, 348.0, 266.0, 353.0, 278.0, 355.0, 288.0, 356.0, 296.0, 356.0, 302.0, 354.0, 308.0, 351.0, 312.0, 347.0, 317.0, 341.0, 321.0, 333.0, 324.0, 325.0, 326.0, 317.0, 327.0, 308.0, 327.0, 303.0, 326.0, 298.0, 324.0, 295.0, 321.0, 290.0, 312.0, 288.0, 295.0, 288.0, 271.0, 288.0, 241.0, 292.0, 214.0, 299.0, 195.0, 303.0, 181.0, 312.0, 166.0, 314.0, 163.0, 316.0, 159.0, 317.0, 157.0, 319.0, 156.0, 319.0, 153.0, 320.0, 151.0, 320.0, 150.0, 320.0, 148.0, 320.0, 146.0, 320.0, 145.0, 320.0, 146.0, 320.0, 147.0, 321.0, 147.0, 321.0, 148.0, 322.0, 149.0, 323.0, 149.0, 324.0, 151.0, 325.0, 152.0, 327.0, 154.0, 329.0, 155.0, 330.0, 156.0, 335.0, 157.0, 338.0, 157.0, 341.0, 157.0, 343.0, 157.0, 345.0, 157.0, 346.0, 157.0, 347.0, 156.0, 348.0, 155.0, 349.0, 154.0, 350.0, 151.0, 351.0, 150.0, 352.0, 149.0, 352.0, 147.0] -> [0, 0, 1, 0, 0]
[385.0, 312.0, 384.0, 312.0, 382.0, 311.0, 379.0, 308.0, 373.0, 302.0, 363.0, 294.0, 347.0, 282.0, 329.0, 271.0, 310.0, 261.0, 296.0, 255.0, 285.0, 253.0, 278.0, 252.0, 274.0, 252.0, 270.0, 252.0, 267.0, 253.0, 265.0, 258.0, 260.0, 266.0, 257.0, 277.0, 255.0, 289.0, 254.0, 303.0, 254.0, 315.0, 255.0, 331.0, 257.0, 345.0, 261.0, 357.0, 265.0, 367.0, 269.0, 374.0, 274.0, 381.0, 282.0, 388.0, 293.0, 396.0, 305.0, 401.0, 318.0, 405.0, 330.0, 407.0, 340.0, 407.0, 350.0, 405.0, 358.0, 398.0, 365.0, 387.0, 380.0, 364.0, 394.0, 328.0, 405.0, 287.0, 414.0, 252.0, 420.0, 223.0, 423.0, 200.0, 428.0, 179.0, 431.0, 163.0, 435.0, 152.0, 437.0, 144.0, 438.0, 139.0, 440.0, 137.0, 441.0, 135.0, 442.0, 134.0, 443.0, 133.0, 445.0, 133.0, 446.0, 133.0, 448.0, 133.0, 450.0, 133.0, 453.0, 133.0, 455.0, 133.0, 457.0, 133.0, 460.0, 133.0, 463.0, 133.0, 464.0, 133.0, 465.0, 133.0, 466.0, 133.0, 467.0, 133.0, 467.0, 134.0, 467.0, 136.0, 467.0, 137.0, 466.0, 139.0, 466.0, 141.0, 465.0, 142.0, 464.0, 143.0, 463.0, 143.0, 462.0, 143.0, 461.0, 143.0, 460.0, 143.0, 459.0, 143.0] -> [0, 0, 0, 1, 0]
[405.0, 172.0, 404.0, 172.0, 403.0, 172.0, 401.0, 172.0, 399.0, 170.0, 394.0, 169.0, 387.0, 167.0, 373.0, 164.0, 354.0, 161.0, 326.0, 160.0, 302.0, 160.0, 285.0, 160.0, 270.0, 161.0, 261.0, 166.0, 253.0, 170.0, 248.0, 174.0, 245.0, 180.0, 241.0, 188.0, 239.0, 198.0, 239.0, 216.0, 240.0, 226.0, 244.0, 236.0, 250.0, 245.0, 258.0, 255.0, 265.0, 264.0, 276.0, 272.0, 286.0, 277.0, 295.0, 281.0, 303.0, 282.0, 306.0, 282.0, 309.0, 282.0, 311.0, 282.0, 312.0, 282.0, 313.0, 282.0, 313.0, 281.0, 313.0, 280.0, 312.0, 279.0, 304.0, 278.0, 292.0, 276.0, 272.0, 276.0, 250.0, 276.0, 227.0, 278.0, 211.0, 283.0, 199.0, 287.0, 190.0, 292.0, 184.0, 297.0, 179.0, 301.0, 174.0, 307.0, 169.0, 315.0, 166.0, 328.0, 164.0, 341.0, 163.0, 354.0, 163.0, 374.0, 164.0, 390.0, 166.0, 403.0, 172.0, 414.0, 176.0, 423.0, 181.0, 428.0, 189.0, 434.0, 196.0, 437.0, 204.0, 439.0, 212.0, 441.0, 222.0, 441.0, 230.0, 441.0, 239.0, 441.0, 248.0, 441.0, 258.0, 440.0, 269.0, 438.0, 278.0, 437.0, 288.0, 435.0, 296.0, 432.0, 302.0, 429.0, 308.0, 427.0, 311.0, 426.0, 313.0, 425.0, 314.0, 424.0] -> [0, 0, 0, 0, 1]
[407.0, 386.0, 406.0, 386.0, 405.0, 383.0, 404.0, 378.0, 399.0, 362.0, 384.0, 324.0, 367.0, 282.0, 348.0, 240.0, 329.0, 211.0, 313.0, 188.0, 302.0, 176.0, 287.0, 164.0, 275.0, 159.0, 262.0, 155.0, 250.0, 155.0, 238.0, 155.0, 227.0, 158.0, 216.0, 162.0, 207.0, 167.0, 201.0, 174.0, 194.0, 185.0, 182.0, 214.0, 178.0, 240.0, 178.0, 270.0, 178.0, 292.0, 180.0, 311.0, 186.0, 327.0, 193.0, 340.0, 198.0, 351.0, 206.0, 359.0, 214.0, 367.0, 226.0, 371.0, 239.0, 374.0, 254.0, 374.0, 268.0, 374.0, 282.0, 371.0, 294.0, 365.0, 304.0, 358.0, 315.0, 351.0, 324.0, 342.0, 340.0, 317.0, 366.0, 271.0, 393.0, 218.0, 408.0, 177.0, 423.0, 148.0, 431.0, 133.0, 436.0, 124.0, 440.0, 121.0, 443.0, 117.0, 448.0, 115.0, 452.0, 115.0, 455.0, 115.0, 460.0, 115.0, 464.0, 116.0, 470.0, 118.0, 473.0, 120.0, 477.0, 120.0, 478.0, 121.0, 479.0, 122.0, 480.0, 122.0, 480.0, 123.0, 480.0, 124.0] -> [1, 0, 0, 0, 0]
[211.0, 337.0, 210.0, 337.0, 209.0, 337.0, 207.0, 338.0, 205.0, 338.0, 202.0, 338.0, 200.0, 339.0, 197.0, 341.0, 194.0, 342.0, 191.0, 344.0, 189.0, 346.0, 187.0, 348.0, 185.0, 350.0, 185.0, 352.0, 185.0, 354.0, 185.0, 356.0, 185.0, 358.0, 185.0, 362.0, 187.0, 366.0, 188.0, 370.0, 189.0, 373.0, 191.0, 374.0, 192.0, 375.0, 193.0, 375.0, 196.0, 375.0, 200.0, 375.0, 207.0, 372.0, 218.0, 362.0, 239.0, 344.0, 259.0, 325.0, 277.0, 306.0, 298.0, 289.0, 313.0, 276.0, 323.0, 267.0, 333.0, 257.0, 345.0, 245.0, 359.0, 227.0, 374.0, 210.0, 384.0, 196.0, 392.0, 186.0, 398.0, 180.0, 404.0, 175.0, 408.0, 171.0, 410.0, 170.0, 412.0, 170.0, 413.0, 170.0, 415.0, 171.0, 416.0, 172.0, 418.0, 174.0, 418.0, 177.0, 418.0, 181.0, 418.0, 186.0, 418.0, 189.0, 418.0, 193.0, 418.0, 197.0, 416.0, 203.0, 413.0, 208.0, 410.0, 212.0, 407.0, 216.0, 405.0, 219.0, 400.0, 223.0, 398.0, 225.0, 393.0, 228.0, 389.0, 230.0, 385.0, 231.0, 383.0, 231.0, 381.0, 231.0, 380.0, 231.0, 381.0, 231.0, 384.0, 231.0, 388.0, 231.0, 393.0, 231.0, 401.0, 231.0, 411.0, 231.0, 420.0, 232.0, 428.0, 234.0, 435.0, 235.0, 440.0, 239.0, 442.0, 241.0, 445.0, 243.0, 448.0, 248.0, 450.0, 255.0, 452.0, 263.0, 453.0, 271.0, 453.0, 278.0, 453.0, 286.0, 453.0, 294.0, 453.0, 300.0, 450.0, 304.0, 447.0, 309.0, 442.0, 313.0, 435.0, 318.0, 422.0, 325.0, 410.0, 331.0, 394.0, 338.0, 378.0, 346.0, 366.0, 352.0, 355.0, 356.0, 343.0, 361.0, 330.0, 364.0, 318.0, 365.0, 306.0, 365.0, 294.0, 361.0, 281.0, 355.0, 267.0, 344.0, 250.0, 328.0, 232.0, 306.0, 227.0, 301.0] -> [0, 1, 0, 0, 0]
[242.0, 172.0, 243.0, 173.0, 251.0, 181.0, 265.0, 195.0, 282.0, 215.0, 298.0, 233.0, 314.0, 255.0, 325.0, 271.0, 333.0, 287.0, 336.0, 298.0, 337.0, 304.0, 337.0, 309.0, 337.0, 311.0, 336.0, 311.0, 333.0, 312.0, 329.0, 312.0, 324.0, 307.0, 312.0, 288.0, 299.0, 252.0, 292.0, 205.0, 292.0, 164.0, 292.0, 131.0, 298.0, 99.0, 302.0, 78.0, 304.0, 69.0, 306.0, 63.0, 307.0, 61.0, 307.0, 60.0, 307.0, 63.0, 307.0, 66.0, 307.0, 69.0, 307.0, 71.0, 307.0, 74.0, 307.0, 75.0, 307.0, 76.0, 307.0, 77.0, 307.0, 78.0, 307.0, 79.0, 307.0, 80.0, 307.0, 81.0, 307.0, 82.0, 307.0, 83.0, 307.0, 86.0, 307.0, 89.0, 309.0, 92.0, 311.0, 95.0, 312.0, 97.0, 316.0, 100.0, 322.0, 104.0, 329.0, 107.0, 338.0, 108.0, 345.0, 108.0, 352.0, 108.0, 355.0, 108.0, 359.0, 108.0, 360.0, 107.0, 361.0, 107.0, 362.0, 105.0, 363.0, 104.0, 363.0, 103.0, 363.0, 102.0, 363.0, 101.0, 363.0, 100.0] -> [0, 0, 1, 0, 0]
[334.0, 313.0, 332.0, 312.0, 330.0, 311.0, 326.0, 307.0, 317.0, 301.0, 306.0, 294.0, 292.0, 288.0, 274.0, 282.0, 260.0, 281.0, 249.0, 281.0, 242.0, 282.0, 236.0, 284.0, 234.0, 288.0, 230.0, 294.0, 226.0, 305.0, 225.0, 319.0, 225.0, 336.0, 228.0, 352.0, 231.0, 365.0, 237.0, 375.0, 242.0, 382.0, 249.0, 388.0, 259.0, 393.0, 270.0, 394.0, 282.0, 394.0, 294.0, 390.0, 306.0, 377.0, 326.0, 355.0, 352.0, 307.0, 374.0, 254.0, 394.0, 202.0, 410.0, 156.0, 423.0, 115.0, 434.0, 89.0, 440.0, 74.0, 444.0, 66.0, 447.0, 62.0, 448.0, 60.0, 448.0, 59.0, 449.0, 59.0, 450.0, 59.0, 451.0, 59.0, 452.0, 59.0, 452.0, 60.0, 452.0, 64.0, 453.0, 70.0, 454.0, 77.0, 455.0, 84.0, 455.0, 88.0, 455.0, 92.0, 455.0, 94.0, 455.0, 96.0, 455.0, 97.0, 454.0, 98.0, 453.0, 98.0, 451.0, 98.0, 450.0, 98.0, 449.0, 98.0, 448.0, 98.0, 447.0, 98.0] -> [0, 0, 0, 1, 0]
[420.0, 124.0, 419.0, 124.0, 418.0, 124.0, 416.0, 123.0, 412.0, 122.0, 406.0, 119.0, 397.0, 116.0, 383.0, 110.0, 355.0, 102.0, 323.0, 95.0, 291.0, 95.0, 272.0, 95.0, 256.0, 98.0, 246.0, 101.0, 240.0, 105.0, 236.0, 108.0, 233.0, 113.0, 230.0, 122.0, 229.0, 130.0, 229.0, 138.0, 229.0, 145.0, 229.0, 151.0, 231.0, 157.0, 233.0, 163.0, 236.0, 168.0, 239.0, 171.0, 243.0, 175.0, 250.0, 180.0, 256.0, 185.0, 264.0, 190.0, 271.0, 193.0, 278.0, 195.0, 285.0, 197.0, 289.0, 197.0, 292.0, 197.0, 295.0, 197.0, 296.0, 197.0, 297.0, 197.0, 297.0, 196.0, 297.0, 195.0, 296.0, 194.0, 294.0, 194.0, 289.0, 193.0, 279.0, 192.0, 267.0, 192.0, 251.0, 192.0, 231.0, 194.0, 207.0, 197.0, 188.0, 204.0, 176.0, 208.0, 166.0, 213.0, 158.0, 218.0, 153.0, 223.0, 148.0, 230.0, 144.0, 241.0, 143.0, 253.0, 143.0, 265.0, 143.0, 276.0, 144.0, 287.0, 150.0, 299.0, 154.0, 310.0, 160.0, 319.0, 167.0, 327.0, 174.0, 335.0, 186.0, 343.0, 208.0, 354.0, 297.0, 377.0, 342.0, 384.0, 376.0, 387.0, 398.0, 389.0, 411.0, 389.0, 419.0, 389.0, 423.0, 389.0, 425.0, 388.0, 425.0, 387.0] -> [0, 0, 0, 0, 1]
[517.0, 380.0, 517.0, 379.0, 516.0, 377.0, 513.0, 371.0, 504.0, 358.0, 491.0, 339.0, 475.0, 317.0, 463.0, 300.0, 450.0, 287.0, 441.0, 279.0, 430.0, 271.0, 419.0, 267.0, 410.0, 267.0, 403.0, 267.0, 396.0, 269.0, 391.0, 273.0, 387.0, 279.0, 380.0, 288.0, 376.0, 302.0, 371.0, 316.0, 370.0, 328.0, 370.0, 339.0, 370.0, 348.0, 370.0, 356.0, 371.0, 362.0, 374.0, 366.0, 377.0, 372.0, 379.0, 376.0, 385.0, 380.0, 391.0, 383.0, 398.0, 384.0, 405.0, 384.0, 413.0, 382.0, 423.0, 375.0, 433.0, 365.0, 449.0, 345.0, 464.0, 323.0, 481.0, 303.0, 492.0, 289.0, 503.0, 277.0, 512.0, 267.0, 520.0, 259.0, 528.0, 254.0, 535.0, 249.0, 540.0, 246.0, 544.0, 245.0, 546.0, 244.0, 548.0, 244.0, 550.0, 244.0, 551.0, 244.0, 552.0, 244.0, 553.0, 244.0, 553.0, 245.0, 553.0, 246.0, 553.0, 247.0] -> [1, 0, 0, 0, 0]
[243.0, 363.0, 242.0, 364.0, 240.0, 366.0, 240.0, 368.0, 239.0, 368.0, 239.0, 369.0, 239.0, 371.0, 239.0, 372.0, 239.0, 373.0, 239.0, 374.0, 240.0, 375.0, 242.0, 376.0, 245.0, 377.0, 249.0, 379.0, 252.0, 380.0, 255.0, 380.0, 260.0, 380.0, 263.0, 380.0, 266.0, 378.0, 273.0, 371.0, 287.0, 346.0, 308.0, 304.0, 327.0, 264.0, 341.0, 233.0, 351.0, 215.0, 356.0, 205.0, 362.0, 198.0, 365.0, 195.0, 370.0, 191.0, 374.0, 189.0, 380.0, 188.0, 384.0, 188.0, 388.0, 188.0, 392.0, 188.0, 396.0, 189.0, 399.0, 191.0, 401.0, 191.0, 403.0, 193.0, 405.0, 194.0, 405.0, 195.0, 406.0, 196.0, 407.0, 198.0, 407.0, 199.0, 407.0, 203.0, 407.0, 210.0, 405.0, 218.0, 400.0, 227.0, 395.0, 235.0, 391.0, 243.0, 385.0, 248.0, 383.0, 251.0, 380.0, 252.0, 379.0, 252.0, 378.0, 253.0, 377.0, 253.0, 378.0, 253.0, 380.0, 253.0, 382.0, 253.0, 386.0, 252.0, 388.0, 252.0, 391.0, 252.0, 394.0, 252.0, 398.0, 252.0, 401.0, 255.0, 406.0, 259.0, 407.0, 261.0, 409.0, 263.0, 410.0, 267.0, 412.0, 272.0, 413.0, 280.0, 414.0, 291.0, 414.0, 299.0, 414.0, 307.0, 414.0, 312.0, 411.0, 318.0, 409.0, 323.0, 405.0, 329.0, 400.0, 335.0, 395.0, 344.0, 387.0, 352.0, 381.0, 360.0, 372.0, 367.0, 362.0, 373.0, 349.0, 377.0, 332.0, 377.0, 310.0, 373.0, 290.0, 362.0, 271.0, 351.0, 261.0, 343.0, 256.0, 338.0, 252.0, 334.0, 250.0, 332.0, 249.0, 331.0, 249.0, 329.0] -> [0, 1, 0, 0, 0]
[350.0, 261.0, 351.0, 261.0, 352.0, 262.0, 354.0, 262.0, 357.0, 264.0, 360.0, 266.0, 364.0, 267.0, 367.0, 270.0, 372.0, 274.0, 376.0, 276.0, 379.0, 279.0, 384.0, 283.0, 386.0, 285.0, 390.0, 289.0, 392.0, 292.0, 395.0, 297.0, 399.0, 305.0, 405.0, 316.0, 409.0, 327.0, 414.0, 338.0, 418.0, 349.0, 421.0, 358.0, 426.0, 376.0, 426.0, 381.0, 426.0, 387.0, 426.0, 390.0, 425.0, 393.0, 423.0, 396.0, 421.0, 399.0, 418.0, 402.0, 414.0, 406.0, 408.0, 409.0, 401.0, 411.0, 394.0, 411.0, 387.0, 411.0, 380.0, 407.0, 375.0, 400.0, 366.0, 383.0, 358.0, 361.0, 356.0, 319.0, 356.0, 304.0, 356.0, 292.0, 356.0, 284.0, 357.0, 280.0, 359.0, 275.0, 361.0, 273.0, 362.0, 269.0, 364.0, 264.0, 367.0, 257.0, 369.0, 250.0, 370.0, 243.0, 371.0, 240.0, 371.0, 237.0, 371.0, 236.0, 371.0, 235.0, 372.0, 235.0, 372.0, 237.0, 372.0, 238.0, 373.0, 239.0, 373.0, 241.0, 374.0, 241.0, 374.0, 242.0, 375.0, 243.0, 375.0, 244.0, 377.0, 245.0, 379.0, 246.0, 381.0, 247.0, 384.0, 249.0, 386.0, 250.0, 390.0, 250.0, 392.0, 251.0, 395.0, 251.0, 397.0, 251.0, 400.0, 251.0, 402.0, 251.0, 404.0, 250.0, 404.0, 249.0, 405.0, 248.0, 406.0, 247.0, 407.0, 246.0, 407.0, 245.0] -> [0, 0, 1, 0, 0]
[372.0, 264.0, 371.0, 264.0, 370.0, 264.0, 368.0, 264.0, 364.0, 262.0, 357.0, 260.0, 346.0, 257.0, 331.0, 254.0, 315.0, 252.0, 302.0, 251.0, 294.0, 251.0, 288.0, 251.0, 286.0, 251.0, 285.0, 251.0, 284.0, 251.0, 284.0, 252.0, 284.0, 253.0, 284.0, 255.0, 285.0, 260.0, 287.0, 267.0, 291.0, 276.0, 296.0, 284.0, 301.0, 294.0, 306.0, 303.0, 312.0, 309.0, 318.0, 315.0, 328.0, 322.0, 340.0, 327.0, 352.0, 332.0, 367.0, 334.0, 381.0, 334.0, 390.0, 333.0, 397.0, 329.0, 405.0, 323.0, 416.0, 307.0, 431.0, 269.0, 443.0, 212.0, 453.0, 159.0, 459.0, 117.0, 463.0, 88.0, 466.0, 63.0, 470.0, 47.0, 473.0, 37.0, 475.0, 30.0, 477.0, 27.0, 478.0, 24.0, 480.0, 23.0, 481.0, 22.0, 483.0, 21.0, 484.0, 21.0, 485.0, 21.0, 486.0, 21.0, 489.0, 21.0, 490.0, 21.0, 491.0, 22.0, 492.0, 22.0, 493.0, 23.0, 493.0, 24.0, 494.0, 25.0, 495.0, 26.0, 495.0, 28.0, 496.0, 31.0, 498.0, 36.0, 499.0, 40.0, 500.0, 45.0, 501.0, 48.0, 501.0, 52.0, 501.0, 54.0, 501.0, 56.0, 501.0, 58.0, 500.0, 60.0, 499.0, 60.0, 497.0, 61.0, 496.0, 62.0, 495.0, 62.0, 493.0, 62.0, 492.0, 62.0, 491.0, 62.0] -> [0, 0, 0, 1, 0]
[389.0, 176.0, 385.0, 176.0, 376.0, 176.0, 362.0, 176.0, 349.0, 174.0, 337.0, 173.0, 327.0, 172.0, 319.0, 171.0, 313.0, 171.0, 307.0, 171.0, 301.0, 172.0, 297.0, 175.0, 294.0, 178.0, 290.0, 184.0, 287.0, 193.0, 284.0, 202.0, 282.0, 211.0, 281.0, 219.0, 281.0, 224.0, 281.0, 226.0, 281.0, 229.0, 282.0, 229.0, 287.0, 232.0, 294.0, 234.0, 302.0, 236.0, 310.0, 239.0, 318.0, 241.0, 324.0, 242.0, 330.0, 243.0, 334.0, 244.0, 340.0, 245.0, 341.0, 245.0, 341.0, 244.0, 341.0, 243.0, 338.0, 243.0, 333.0, 242.0, 325.0, 242.0, 317.0, 242.0, 307.0, 242.0, 297.0, 242.0, 287.0, 244.0, 279.0, 246.0, 272.0, 249.0, 266.0, 252.0, 260.0, 255.0, 256.0, 258.0, 253.0, 262.0, 250.0, 265.0, 248.0, 269.0, 245.0, 273.0, 243.0, 279.0, 241.0, 286.0, 241.0, 293.0, 240.0, 300.0, 240.0, 307.0, 240.0, 313.0, 240.0, 319.0, 242.0, 325.0, 245.0, 329.0, 249.0, 335.0, 252.0, 341.0, 254.0, 346.0, 258.0, 352.0, 261.0, 357.0, 266.0, 360.0, 271.0, 365.0, 281.0, 371.0, 289.0, 375.0, 298.0, 379.0, 306.0, 381.0, 313.0, 382.0, 318.0, 383.0, 325.0, 383.0, 332.0, 384.0, 339.0, 384.0, 346.0, 384.0, 352.0, 384.0, 359.0, 384.0, 364.0, 384.0, 370.0, 384.0, 376.0, 383.0, 380.0, 383.0, 387.0, 379.0, 389.0, 378.0, 391.0, 377.0, 393.0, 376.0, 394.0, 375.0] -> [0, 0, 0, 0, 1]
[366.0, 386.0, 366.0, 385.0, 365.0, 381.0, 361.0, 372.0, 353.0, 361.0, 342.0, 342.0, 328.0, 321.0, 315.0, 301.0, 302.0, 285.0, 292.0, 274.0, 280.0, 264.0, 267.0, 255.0, 254.0, 250.0, 243.0, 245.0, 234.0, 244.0, 226.0, 244.0, 220.0, 244.0, 216.0, 246.0, 213.0, 248.0, 210.0, 253.0, 207.0, 260.0, 204.0, 271.0, 202.0, 282.0, 202.0, 291.0, 201.0, 299.0, 201.0, 307.0, 202.0, 313.0, 205.0, 320.0, 209.0, 326.0, 214.0, 332.0, 219.0, 338.0, 225.0, 345.0, 234.0, 349.0, 241.0, 354.0, 251.0, 356.0, 259.0, 357.0, 268.0, 357.0, 278.0, 357.0, 286.0, 354.0, 296.0, 347.0, 306.0, 337.0, 318.0, 325.0, 335.0, 307.0, 351.0, 283.0, 364.0, 264.0, 375.0, 247.0, 385.0, 236.0, 391.0, 226.0, 398.0, 216.0, 403.0, 207.0, 409.0, 200.0, 414.0, 192.0, 417.0, 189.0, 421.0, 185.0, 426.0, 181.0, 429.0, 180.0, 433.0, 179.0, 437.0, 179.0, 444.0, 179.0, 455.0, 179.0, 458.0, 180.0, 460.0, 180.0, 462.0, 182.0, 463.0, 183.0, 464.0, 183.0, 464.0, 185.0, 464.0, 186.0, 464.0, 187.0] -> [1, 0, 0, 0, 0]
[309.0, 389.0, 308.0, 389.0, 308.0, 390.0, 306.0, 391.0, 304.0, 392.0, 301.0, 395.0, 297.0, 398.0, 295.0, 400.0, 293.0, 401.0, 292.0, 403.0, 291.0, 404.0, 291.0, 405.0, 291.0, 407.0, 291.0, 408.0, 291.0, 409.0, 291.0, 410.0, 292.0, 412.0, 294.0, 413.0, 296.0, 414.0, 300.0, 415.0, 303.0, 415.0, 308.0, 414.0, 312.0, 410.0, 319.0, 403.0, 327.0, 390.0, 339.0, 369.0, 352.0, 343.0, 363.0, 319.0, 373.0, 299.0, 381.0, 283.0, 388.0, 270.0, 395.0, 261.0, 400.0, 253.0, 409.0, 242.0, 414.0, 239.0, 416.0, 238.0, 418.0, 237.0, 420.0, 236.0, 422.0, 236.0, 425.0, 236.0, 428.0, 236.0, 430.0, 239.0, 431.0, 241.0, 435.0, 244.0, 439.0, 251.0, 442.0, 261.0, 445.0, 272.0, 446.0, 281.0, 446.0, 289.0, 446.0, 296.0, 446.0, 301.0, 443.0, 304.0, 438.0, 308.0, 432.0, 312.0, 426.0, 315.0, 422.0, 317.0, 419.0, 317.0, 415.0, 318.0, 414.0, 318.0, 416.0, 318.0, 419.0, 318.0, 422.0, 318.0, 425.0, 318.0, 429.0, 318.0, 433.0, 318.0, 437.0, 319.0, 442.0, 320.0, 446.0, 322.0, 449.0, 323.0, 451.0, 324.0, 455.0, 326.0, 456.0, 327.0, 457.0, 329.0, 459.0, 330.0, 460.0, 332.0, 463.0, 335.0, 464.0, 338.0, 465.0, 341.0, 468.0, 345.0, 468.0, 348.0, 469.0, 352.0, 470.0, 358.0, 470.0, 363.0, 470.0, 368.0, 470.0, 373.0, 469.0, 377.0, 467.0, 382.0, 464.0, 385.0, 462.0, 389.0, 458.0, 394.0, 451.0, 400.0, 444.0, 406.0, 434.0, 413.0, 424.0, 418.0, 416.0, 422.0, 406.0, 424.0, 398.0, 425.0, 389.0, 425.0, 379.0, 423.0, 371.0, 419.0, 364.0, 416.0, 358.0, 413.0, 353.0, 410.0, 350.0, 409.0, 348.0, 407.0, 346.0, 407.0, 345.0, 405.0, 343.0, 403.0, 342.0, 401.0, 341.0, 399.0, 340.0, 398.0, 340.0, 397.0] -> [0, 1, 0, 0, 0]
[318.0, 283.0, 318.0, 284.0, 322.0, 286.0, 332.0, 293.0, 342.0, 301.0, 352.0, 310.0, 362.0, 317.0, 369.0, 324.0, 375.0, 330.0, 380.0, 336.0, 384.0, 343.0, 388.0, 351.0, 391.0, 360.0, 392.0, 371.0, 392.0, 382.0, 392.0, 390.0, 392.0, 395.0, 391.0, 400.0, 389.0, 402.0, 386.0, 403.0, 380.0, 404.0, 369.0, 404.0, 360.0, 404.0, 350.0, 402.0, 342.0, 398.0, 337.0, 393.0, 333.0, 388.0, 329.0, 380.0, 327.0, 370.0, 327.0, 360.0, 327.0, 351.0, 329.0, 342.0, 332.0, 333.0, 336.0, 326.0, 339.0, 320.0, 342.0, 316.0, 345.0, 312.0, 346.0, 309.0, 348.0, 307.0, 348.0, 304.0, 349.0, 303.0, 350.0, 302.0, 350.0, 301.0, 350.0, 300.0, 350.0, 299.0, 350.0, 298.0, 350.0, 296.0, 350.0, 295.0, 349.0, 292.0, 349.0, 289.0, 349.0, 287.0, 348.0, 284.0, 347.0, 282.0, 347.0, 280.0, 347.0, 279.0, 347.0, 280.0, 347.0, 281.0, 347.0, 282.0, 347.0, 283.0, 348.0, 284.0, 348.0, 285.0, 349.0, 286.0, 350.0, 286.0, 351.0, 287.0, 353.0, 288.0, 356.0, 288.0, 358.0, 289.0, 361.0, 290.0, 363.0, 290.0, 364.0, 290.0, 365.0, 290.0, 366.0, 290.0, 368.0, 290.0, 369.0, 290.0, 369.0, 289.0, 369.0, 288.0, 370.0, 288.0, 370.0, 287.0, 370.0, 286.0, 370.0, 285.0] -> [0, 0, 1, 0, 0]
[373.0, 349.0, 370.0, 347.0, 364.0, 344.0, 354.0, 337.0, 342.0, 331.0, 329.0, 327.0, 316.0, 324.0, 305.0, 321.0, 296.0, 321.0, 288.0, 321.0, 281.0, 321.0, 276.0, 321.0, 274.0, 323.0, 273.0, 323.0, 271.0, 326.0, 271.0, 328.0, 270.0, 330.0, 270.0, 334.0, 270.0, 338.0, 270.0, 342.0, 271.0, 352.0, 273.0, 360.0, 277.0, 369.0, 281.0, 375.0, 285.0, 381.0, 289.0, 386.0, 295.0, 391.0, 303.0, 395.0, 311.0, 398.0, 318.0, 398.0, 327.0, 398.0, 335.0, 397.0, 343.0, 393.0, 350.0, 386.0, 356.0, 379.0, 364.0, 369.0, 374.0, 354.0, 384.0, 336.0, 395.0, 310.0, 404.0, 280.0, 412.0, 250.0, 423.0, 212.0, 433.0, 177.0, 442.0, 147.0, 449.0, 122.0, 455.0, 103.0, 458.0, 92.0, 461.0, 85.0, 464.0, 79.0, 466.0, 76.0, 467.0, 74.0, 469.0, 71.0, 470.0, 70.0, 472.0, 69.0, 474.0, 67.0, 476.0, 66.0, 478.0, 66.0, 480.0, 65.0, 483.0, 64.0, 484.0, 64.0, 486.0, 64.0, 488.0, 64.0, 490.0, 64.0, 493.0, 65.0, 496.0, 66.0, 497.0, 67.0, 499.0, 68.0, 499.0, 70.0, 501.0, 71.0, 502.0, 75.0, 502.0, 77.0, 502.0, 79.0, 502.0, 80.0, 502.0, 81.0, 502.0, 82.0, 502.0, 83.0, 501.0, 84.0, 500.0, 84.0, 499.0, 84.0, 498.0, 85.0, 497.0, 85.0, 496.0, 85.0, 495.0, 85.0, 494.0, 85.0] -> [0, 0, 0, 1, 0]
[395.0, 177.0, 394.0, 177.0, 391.0, 177.0, 384.0, 177.0, 372.0, 176.0, 359.0, 173.0, 343.0, 169.0, 325.0, 165.0, 309.0, 161.0, 293.0, 158.0, 279.0, 155.0, 270.0, 155.0, 257.0, 156.0, 254.0, 159.0, 250.0, 164.0, 242.0, 186.0, 240.0, 198.0, 239.0, 207.0, 239.0, 218.0, 239.0, 226.0, 239.0, 233.0, 240.0, 240.0, 243.0, 244.0, 245.0, 249.0, 248.0, 252.0, 256.0, 258.0, 262.0, 263.0, 270.0, 268.0, 278.0, 273.0, 286.0, 276.0, 293.0, 278.0, 300.0, 280.0, 308.0, 282.0, 314.0, 282.0, 321.0, 281.0, 325.0, 280.0, 328.0, 277.0, 330.0, 277.0, 330.0, 275.0, 332.0, 275.0, 332.0, 274.0, 332.0, 273.0, 332.0, 272.0, 330.0, 272.0, 325.0, 271.0, 318.0, 270.0, 309.0, 270.0, 298.0, 269.0, 287.0, 269.0, 278.0, 269.0, 269.0, 269.0, 259.0, 269.0, 253.0, 271.0, 246.0, 273.0, 242.0, 275.0, 236.0, 277.0, 231.0, 280.0, 228.0, 282.0, 226.0, 285.0, 222.0, 287.0, 220.0, 291.0, 217.0, 293.0, 215.0, 297.0, 212.0, 300.0, 210.0, 302.0, 208.0, 306.0, 207.0, 308.0, 207.0, 315.0, 207.0, 319.0, 207.0, 326.0, 208.0, 334.0, 210.0, 342.0, 212.0, 350.0, 214.0, 357.0, 216.0, 361.0, 219.0, 367.0, 223.0, 372.0, 227.0, 377.0, 235.0, 383.0, 248.0, 393.0, 262.0, 405.0, 283.0, 415.0, 301.0, 425.0, 321.0, 430.0, 334.0, 433.0, 347.0, 434.0, 358.0, 434.0, 369.0, 433.0, 376.0, 429.0, 383.0, 426.0, 388.0, 424.0, 391.0, 421.0, 393.0, 420.0, 394.0, 419.0] -> [0, 0, 0, 0, 1]
[442.0, 395.0, 442.0, 394.0, 441.0, 391.0, 436.0, 383.0, 429.0, 369.0, 414.0, 345.0, 398.0, 320.0, 382.0, 298.0, 367.0, 278.0, 350.0, 258.0, 335.0, 241.0, 318.0, 225.0, 304.0, 214.0, 290.0, 206.0, 279.0, 201.0, 271.0, 200.0, 264.0, 200.0, 259.0, 200.0, 255.0, 202.0, 251.0, 207.0, 247.0, 214.0, 244.0, 224.0, 243.0, 233.0, 243.0, 245.0, 243.0, 256.0, 244.0, 271.0, 248.0, 283.0, 252.0, 294.0, 256.0, 304.0, 261.0, 310.0, 267.0, 316.0, 285.0, 327.0, 295.0, 330.0, 307.0, 331.0, 319.0, 332.0, 331.0, 332.0, 340.0, 332.0, 349.0, 332.0, 358.0, 329.0, 366.0, 325.0, 375.0, 320.0, 385.0, 310.0, 396.0, 295.0, 418.0, 265.0, 439.0, 223.0, 457.0, 186.0, 470.0, 160.0, 482.0, 139.0, 489.0, 126.0, 495.0, 118.0, 500.0, 113.0, 505.0, 108.0, 509.0, 107.0, 515.0, 106.0, 519.0, 106.0, 522.0, 106.0, 525.0, 106.0, 528.0, 106.0, 529.0, 107.0, 531.0, 109.0, 532.0, 109.0, 532.0, 110.0, 532.0, 111.0, 532.0, 112.0, 533.0, 115.0, 533.0, 116.0] -> [1, 0, 0, 0, 0]
[260.0, 396.0, 259.0, 396.0, 259.0, 397.0, 258.0, 398.0, 257.0, 399.0, 256.0, 399.0, 256.0, 400.0, 256.0, 401.0, 255.0, 402.0, 255.0, 403.0, 255.0, 404.0, 255.0, 405.0, 255.0, 406.0, 257.0, 406.0, 259.0, 406.0, 262.0, 406.0, 265.0, 406.0, 271.0, 402.0, 279.0, 391.0, 296.0, 365.0, 317.0, 326.0, 333.0, 292.0, 344.0, 269.0, 353.0, 253.0, 360.0, 240.0, 367.0, 230.0, 373.0, 219.0, 379.0, 209.0, 383.0, 201.0, 387.0, 195.0, 391.0, 192.0, 393.0, 189.0, 396.0, 188.0, 398.0, 188.0, 400.0, 188.0, 403.0, 189.0, 406.0, 192.0, 411.0, 198.0, 417.0, 208.0, 423.0, 219.0, 432.0, 240.0, 440.0, 262.0, 442.0, 277.0, 443.0, 290.0, 443.0, 301.0, 441.0, 309.0, 437.0, 315.0, 434.0, 319.0, 429.0, 323.0, 426.0, 324.0, 423.0, 324.0, 421.0, 325.0, 420.0, 325.0, 419.0, 325.0, 419.0, 324.0, 419.0, 323.0, 420.0, 323.0, 421.0, 323.0, 423.0, 323.0, 425.0, 323.0, 428.0, 323.0, 432.0, 325.0, 437.0, 328.0, 443.0, 331.0, 446.0, 333.0, 450.0, 334.0, 451.0, 335.0, 452.0, 336.0, 453.0, 337.0, 454.0, 338.0, 455.0, 340.0, 456.0, 340.0, 456.0, 341.0, 456.0, 343.0, 456.0, 345.0, 456.0, 346.0, 456.0, 348.0, 456.0, 350.0, 456.0, 353.0, 454.0, 356.0, 453.0, 358.0, 450.0, 360.0, 447.0, 364.0, 441.0, 369.0, 433.0, 374.0, 425.0, 379.0, 416.0, 382.0, 408.0, 385.0, 401.0, 387.0, 395.0, 388.0, 389.0, 388.0, 381.0, 388.0, 371.0, 387.0, 361.0, 382.0, 352.0, 378.0, 344.0, 373.0, 340.0, 370.0, 337.0, 368.0, 335.0, 366.0, 334.0, 365.0, 333.0, 363.0, 332.0, 362.0, 332.0, 361.0, 331.0, 359.0, 331.0, 358.0] -> [0, 1, 0, 0, 0]
[248.0, 153.0, 249.0, 153.0, 251.0, 154.0, 257.0, 159.0, 267.0, 165.0, 279.0, 176.0, 294.0, 190.0, 309.0, 203.0, 319.0, 214.0, 330.0, 224.0, 337.0, 234.0, 345.0, 245.0, 351.0, 255.0, 353.0, 262.0, 354.0, 266.0, 354.0, 268.0, 354.0, 270.0, 352.0, 270.0, 348.0, 265.0, 343.0, 257.0, 339.0, 246.0, 333.0, 235.0, 330.0, 223.0, 327.0, 212.0, 324.0, 199.0, 322.0, 189.0, 321.0, 179.0, 321.0, 172.0, 321.0, 164.0, 321.0, 158.0, 321.0, 151.0, 321.0, 144.0, 323.0, 137.0, 325.0, 131.0, 327.0, 128.0, 328.0, 125.0, 329.0, 123.0, 330.0, 123.0, 330.0, 122.0, 330.0, 124.0, 330.0, 125.0, 330.0, 126.0, 330.0, 128.0, 330.0, 129.0, 331.0, 130.0, 332.0, 131.0, 334.0, 132.0, 337.0, 134.0, 341.0, 135.0, 344.0, 135.0, 348.0, 135.0, 350.0, 135.0, 353.0, 135.0, 354.0, 135.0, 355.0, 134.0, 356.0, 134.0, 356.0, 133.0] -> [0, 0, 1, 0, 0]
[371.0, 334.0, 370.0, 334.0, 367.0, 334.0, 364.0, 333.0, 360.0, 330.0, 355.0, 328.0, 349.0, 324.0, 342.0, 322.0, 336.0, 320.0, 329.0, 318.0, 323.0, 318.0, 318.0, 318.0, 314.0, 319.0, 312.0, 320.0, 310.0, 322.0, 308.0, 327.0, 307.0, 332.0, 305.0, 339.0, 305.0, 347.0, 305.0, 355.0, 305.0, 362.0, 306.0, 368.0, 308.0, 372.0, 312.0, 376.0, 319.0, 380.0, 327.0, 385.0, 335.0, 389.0, 345.0, 391.0, 353.0, 391.0, 369.0, 389.0, 376.0, 381.0, 386.0, 370.0, 406.0, 332.0, 422.0, 283.0, 435.0, 235.0, 443.0, 190.0, 448.0, 161.0, 451.0, 145.0, 454.0, 135.0, 455.0, 131.0, 455.0, 128.0, 456.0, 126.0, 457.0, 126.0, 457.0, 125.0, 458.0, 124.0, 460.0, 123.0, 462.0, 123.0, 463.0, 123.0, 464.0, 123.0, 466.0, 123.0, 468.0, 123.0, 469.0, 123.0, 470.0, 123.0, 471.0, 123.0, 471.0, 124.0, 472.0, 124.0, 472.0, 125.0, 472.0, 127.0, 472.0, 128.0, 472.0, 130.0, 471.0, 130.0, 470.0, 130.0] -> [0, 0, 0, 1, 0]
[344.0, 182.0, 343.0, 182.0, 342.0, 182.0, 340.0, 182.0, 336.0, 182.0, 329.0, 182.0, 318.0, 182.0, 305.0, 181.0, 286.0, 180.0, 261.0, 178.0, 234.0, 178.0, 211.0, 180.0, 192.0, 184.0, 181.0, 189.0, 173.0, 193.0, 168.0, 198.0, 164.0, 203.0, 160.0, 210.0, 157.0, 220.0, 156.0, 230.0, 156.0, 241.0, 157.0, 252.0, 160.0, 260.0, 165.0, 270.0, 170.0, 277.0, 176.0, 282.0, 182.0, 286.0, 189.0, 289.0, 197.0, 291.0, 202.0, 291.0, 209.0, 291.0, 216.0, 291.0, 218.0, 291.0, 220.0, 291.0, 221.0, 291.0, 222.0, 290.0, 221.0, 290.0, 218.0, 289.0, 214.0, 288.0, 207.0, 287.0, 198.0, 285.0, 187.0, 285.0, 176.0, 285.0, 166.0, 285.0, 156.0, 286.0, 148.0, 289.0, 141.0, 292.0, 135.0, 296.0, 131.0, 301.0, 128.0, 305.0, 124.0, 312.0, 122.0, 319.0, 120.0, 326.0, 119.0, 335.0, 119.0, 343.0, 119.0, 350.0, 119.0, 358.0, 119.0, 364.0, 119.0, 369.0, 120.0, 379.0, 122.0, 383.0, 124.0, 388.0, 128.0, 393.0, 132.0, 399.0, 141.0, 405.0, 152.0, 412.0, 164.0, 418.0, 178.0, 422.0, 189.0, 425.0, 203.0, 428.0, 215.0, 429.0, 225.0, 429.0, 235.0, 429.0, 244.0, 429.0, 252.0, 429.0, 261.0, 429.0, 271.0, 429.0, 279.0, 427.0, 287.0, 424.0, 293.0, 422.0, 298.0, 420.0, 302.0, 417.0, 305.0, 416.0, 306.0, 414.0] -> [0, 0, 0, 0, 1]
[407.0, 370.0, 407.0, 368.0, 403.0, 359.0, 395.0, 343.0, 381.0, 321.0, 364.0, 289.0, 347.0, 265.0, 332.0, 245.0, 320.0, 231.0, 310.0, 220.0, 300.0, 213.0, 290.0, 207.0, 282.0, 203.0, 275.0, 201.0, 268.0, 201.0, 263.0, 201.0, 258.0, 201.0, 255.0, 201.0, 252.0, 203.0, 248.0, 208.0, 245.0, 216.0, 240.0, 230.0, 236.0, 254.0, 233.0, 277.0, 233.0, 299.0, 233.0, 314.0, 234.0, 334.0, 238.0, 340.0, 241.0, 344.0, 247.0, 348.0, 254.0, 353.0, 262.0, 355.0, 271.0, 356.0, 280.0, 356.0, 288.0, 356.0, 295.0, 356.0, 303.0, 353.0, 313.0, 349.0, 320.0, 344.0, 330.0, 336.0, 340.0, 326.0, 353.0, 311.0, 373.0, 278.0, 393.0, 246.0, 409.0, 219.0, 422.0, 198.0, 430.0, 185.0, 437.0, 173.0, 442.0, 165.0, 446.0, 158.0, 450.0, 154.0, 454.0, 150.0, 457.0, 149.0, 461.0, 147.0, 471.0, 147.0, 476.0, 147.0, 482.0, 147.0, 486.0, 147.0, 489.0, 147.0, 491.0, 148.0, 492.0, 148.0, 492.0, 149.0, 492.0, 150.0, 493.0, 151.0, 493.0, 153.0, 493.0, 156.0, 493.0, 159.0, 493.0, 162.0, 493.0, 165.0, 493.0, 167.0, 492.0, 168.0, 492.0, 169.0, 491.0, 169.0] -> [1, 0, 0, 0, 0]
[300.0, 357.0, 299.0, 358.0, 298.0, 359.0, 296.0, 361.0, 293.0, 363.0, 291.0, 365.0, 290.0, 367.0, 288.0, 368.0, 287.0, 369.0, 286.0, 371.0, 285.0, 373.0, 285.0, 374.0, 285.0, 375.0, 285.0, 376.0, 285.0, 377.0, 285.0, 378.0, 285.0, 380.0, 287.0, 381.0, 289.0, 382.0, 291.0, 383.0, 294.0, 383.0, 297.0, 383.0, 301.0, 383.0, 306.0, 378.0, 318.0, 362.0, 336.0, 328.0, 355.0, 289.0, 367.0, 250.0, 382.0, 214.0, 391.0, 191.0, 397.0, 177.0, 401.0, 167.0, 406.0, 160.0, 408.0, 155.0, 411.0, 154.0, 414.0, 151.0, 417.0, 150.0, 420.0, 150.0, 423.0, 150.0, 426.0, 150.0, 429.0, 151.0, 433.0, 154.0, 435.0, 155.0, 437.0, 158.0, 438.0, 161.0, 439.0, 167.0, 439.0, 171.0, 439.0, 173.0, 439.0, 175.0, 437.0, 177.0, 434.0, 179.0, 429.0, 183.0, 422.0, 186.0, 417.0, 188.0, 411.0, 191.0, 407.0, 192.0, 404.0, 193.0, 401.0, 195.0, 399.0, 195.0, 398.0, 195.0, 400.0, 195.0, 404.0, 195.0, 409.0, 195.0, 415.0, 196.0, 422.0, 197.0, 431.0, 198.0, 439.0, 200.0, 446.0, 202.0, 453.0, 205.0, 459.0, 208.0, 464.0, 212.0, 468.0, 215.0, 472.0, 218.0, 474.0, 220.0, 477.0, 225.0, 480.0, 228.0, 482.0, 233.0, 484.0, 237.0, 486.0, 243.0, 487.0, 249.0, 488.0, 257.0, 488.0, 265.0, 488.0, 274.0, 487.0, 282.0, 485.0, 293.0, 482.0, 302.0, 477.0, 311.0, 473.0, 320.0, 468.0, 329.0, 463.0, 335.0, 457.0, 341.0, 450.0, 346.0, 440.0, 352.0, 431.0, 355.0, 419.0, 355.0, 392.0, 344.0, 378.0, 334.0, 366.0, 324.0, 357.0, 315.0, 349.0, 305.0, 344.0, 297.0, 339.0, 289.0, 337.0, 286.0] -> [0, 1, 0, 0, 0]
[300.0, 210.0, 301.0, 211.0, 307.0, 214.0, 317.0, 223.0, 327.0, 232.0, 340.0, 243.0, 352.0, 253.0, 360.0, 262.0, 368.0, 271.0, 376.0, 286.0, 382.0, 299.0, 386.0, 311.0, 387.0, 319.0, 387.0, 325.0, 387.0, 328.0, 387.0, 329.0, 386.0, 330.0, 383.0, 331.0, 378.0, 331.0, 372.0, 329.0, 364.0, 323.0, 357.0, 317.0, 350.0, 308.0, 345.0, 295.0, 339.0, 279.0, 336.0, 256.0, 336.0, 240.0, 336.0, 227.0, 336.0, 216.0, 339.0, 207.0, 341.0, 203.0, 342.0, 200.0, 342.0, 198.0, 343.0, 197.0, 343.0, 196.0, 343.0, 195.0, 344.0, 196.0, 345.0, 197.0, 345.0, 198.0, 346.0, 199.0, 347.0, 201.0, 348.0, 201.0, 350.0, 203.0, 351.0, 204.0, 354.0, 205.0, 356.0, 206.0, 358.0, 206.0, 360.0, 206.0, 362.0, 206.0, 364.0, 206.0, 366.0, 204.0, 367.0, 203.0, 367.0, 202.0] -> [0, 0, 1, 0, 0]
[357.0, 325.0, 356.0, 325.0, 354.0, 325.0, 351.0, 323.0, 344.0, 321.0, 338.0, 319.0, 331.0, 316.0, 326.0, 315.0, 320.0, 313.0, 316.0, 313.0, 312.0, 313.0, 310.0, 313.0, 309.0, 313.0, 308.0, 313.0, 307.0, 314.0, 307.0, 316.0, 307.0, 318.0, 307.0, 321.0, 307.0, 325.0, 307.0, 330.0, 308.0, 335.0, 310.0, 339.0, 310.0, 341.0, 312.0, 344.0, 313.0, 345.0, 319.0, 348.0, 323.0, 350.0, 326.0, 350.0, 330.0, 350.0, 336.0, 350.0, 339.0, 350.0, 341.0, 349.0, 343.0, 347.0, 345.0, 345.0, 348.0, 339.0, 354.0, 330.0, 358.0, 318.0, 365.0, 298.0, 369.0, 277.0, 373.0, 259.0, 377.0, 237.0, 379.0, 222.0, 382.0, 209.0, 384.0, 199.0, 387.0, 191.0, 390.0, 184.0, 392.0, 178.0, 395.0, 173.0, 396.0, 170.0, 400.0, 166.0, 402.0, 165.0, 405.0, 163.0, 408.0, 162.0, 413.0, 162.0, 415.0, 162.0, 416.0, 162.0, 417.0, 162.0, 418.0, 162.0, 419.0, 162.0, 419.0, 163.0, 420.0, 164.0, 421.0, 166.0, 421.0, 167.0, 421.0, 169.0, 421.0, 171.0, 421.0, 173.0, 421.0, 174.0, 421.0, 175.0, 420.0, 175.0, 419.0, 175.0, 418.0, 175.0, 417.0, 175.0] -> [0, 0, 0, 1, 0]
[398.0, 263.0, 398.0, 262.0, 397.0, 261.0, 394.0, 260.0, 390.0, 257.0, 383.0, 254.0, 372.0, 252.0, 360.0, 250.0, 348.0, 249.0, 336.0, 249.0, 327.0, 249.0, 316.0, 253.0, 313.0, 255.0, 311.0, 258.0, 309.0, 261.0, 306.0, 266.0, 304.0, 271.0, 303.0, 276.0, 303.0, 280.0, 303.0, 284.0, 303.0, 286.0, 303.0, 288.0, 303.0, 290.0, 305.0, 292.0, 308.0, 295.0, 311.0, 297.0, 316.0, 300.0, 322.0, 303.0, 327.0, 305.0, 331.0, 306.0, 335.0, 307.0, 338.0, 307.0, 340.0, 307.0, 341.0, 307.0, 342.0, 307.0, 343.0, 307.0, 341.0, 307.0, 339.0, 306.0, 336.0, 306.0, 331.0, 306.0, 323.0, 306.0, 313.0, 306.0, 304.0, 306.0, 295.0, 306.0, 287.0, 306.0, 280.0, 306.0, 276.0, 307.0, 272.0, 308.0, 270.0, 311.0, 269.0, 312.0, 268.0, 314.0, 266.0, 318.0, 265.0, 322.0, 264.0, 330.0, 263.0, 337.0, 263.0, 344.0, 263.0, 352.0, 263.0, 358.0, 263.0, 363.0, 264.0, 367.0, 266.0, 373.0, 269.0, 379.0, 283.0, 397.0, 293.0, 407.0, 307.0, 419.0, 317.0, 426.0, 328.0, 433.0, 338.0, 437.0, 346.0, 439.0, 357.0, 441.0, 368.0, 441.0, 378.0, 441.0, 389.0, 439.0, 397.0, 436.0, 404.0, 434.0, 412.0, 431.0, 415.0, 429.0, 417.0, 427.0, 419.0, 426.0, 420.0, 426.0, 421.0, 426.0, 421.0, 425.0] -> [0, 0, 0, 0, 1]
[411.0, 347.0, 411.0, 346.0, 411.0, 345.0, 410.0, 344.0, 408.0, 342.0, 406.0, 339.0, 403.0, 330.0, 396.0, 319.0, 386.0, 306.0, 375.0, 287.0, 365.0, 275.0, 357.0, 265.0, 346.0, 253.0, 337.0, 244.0, 327.0, 234.0, 319.0, 227.0, 311.0, 219.0, 302.0, 214.0, 295.0, 211.0, 289.0, 210.0, 284.0, 210.0, 281.0, 210.0, 278.0, 213.0, 274.0, 218.0, 270.0, 226.0, 266.0, 237.0, 262.0, 252.0, 259.0, 266.0, 257.0, 281.0, 255.0, 293.0, 255.0, 301.0, 255.0, 306.0, 256.0, 310.0, 257.0, 313.0, 258.0, 314.0, 261.0, 316.0, 264.0, 318.0, 270.0, 321.0, 277.0, 324.0, 285.0, 326.0, 307.0, 331.0, 318.0, 332.0, 327.0, 332.0, 335.0, 332.0, 343.0, 332.0, 351.0, 330.0, 359.0, 326.0, 365.0, 322.0, 371.0, 316.0, 377.0, 308.0, 386.0, 293.0, 392.0, 280.0, 397.0, 266.0, 403.0, 254.0, 409.0, 243.0, 413.0, 232.0, 417.0, 223.0, 423.0, 215.0, 427.0, 209.0, 429.0, 204.0, 433.0, 201.0, 437.0, 198.0, 441.0, 195.0, 444.0, 194.0, 449.0, 192.0, 452.0, 192.0, 456.0, 192.0, 459.0, 192.0, 461.0, 192.0, 464.0, 192.0, 466.0, 192.0, 467.0, 192.0, 468.0, 192.0, 469.0, 192.0, 469.0, 193.0, 469.0, 194.0, 469.0, 195.0, 469.0, 196.0, 469.0, 198.0] -> [1, 0, 0, 0, 0]
[272.0, 401.0, 271.0, 401.0, 270.0, 402.0, 269.0, 403.0, 268.0, 404.0, 268.0, 406.0, 267.0, 409.0, 267.0, 411.0, 267.0, 413.0, 267.0, 414.0, 267.0, 416.0, 267.0, 417.0, 268.0, 418.0, 270.0, 418.0, 273.0, 419.0, 275.0, 419.0, 278.0, 419.0, 280.0, 419.0, 282.0, 419.0, 284.0, 419.0, 286.0, 418.0, 289.0, 416.0, 295.0, 407.0, 302.0, 393.0, 311.0, 375.0, 319.0, 355.0, 326.0, 337.0, 333.0, 320.0, 337.0, 309.0, 343.0, 298.0, 347.0, 288.0, 351.0, 280.0, 355.0, 274.0, 359.0, 269.0, 364.0, 264.0, 368.0, 259.0, 373.0, 254.0, 378.0, 249.0, 382.0, 247.0, 387.0, 245.0, 391.0, 243.0, 396.0, 242.0, 399.0, 241.0, 402.0, 241.0, 407.0, 241.0, 409.0, 242.0, 411.0, 244.0, 412.0, 246.0, 413.0, 250.0, 413.0, 255.0, 414.0, 259.0, 414.0, 263.0, 412.0, 266.0, 410.0, 270.0, 408.0, 272.0, 406.0, 274.0, 403.0, 275.0, 401.0, 276.0, 397.0, 277.0, 395.0, 277.0, 393.0, 277.0, 392.0, 277.0, 390.0, 277.0, 389.0, 277.0, 388.0, 277.0, 387.0, 277.0, 386.0, 277.0, 385.0, 277.0, 384.0, 277.0, 383.0, 277.0, 382.0, 277.0, 381.0, 277.0, 380.0, 277.0, 381.0, 277.0, 384.0, 277.0, 392.0, 277.0, 400.0, 277.0, 408.0, 277.0, 415.0, 278.0, 419.0, 280.0, 424.0, 282.0, 427.0, 283.0, 429.0, 285.0, 431.0, 287.0, 436.0, 291.0, 438.0, 295.0, 442.0, 300.0, 445.0, 304.0, 449.0, 313.0, 453.0, 322.0, 456.0, 335.0, 457.0, 347.0, 457.0, 357.0, 457.0, 367.0, 457.0, 375.0, 455.0, 382.0, 452.0, 388.0, 447.0, 393.0, 438.0, 399.0, 425.0, 407.0, 411.0, 412.0, 395.0, 416.0, 381.0, 417.0, 367.0, 417.0, 357.0, 417.0, 347.0, 416.0, 340.0, 414.0, 336.0, 412.0, 332.0, 409.0, 330.0, 407.0, 327.0, 404.0, 323.0, 399.0, 320.0, 393.0, 310.0, 377.0, 304.0, 367.0, 300.0, 360.0, 296.0, 354.0, 295.0, 350.0, 293.0, 345.0] -> [0, 1, 0, 0, 0]
[319.0, 261.0, 320.0, 261.0, 322.0, 265.0, 330.0, 271.0, 338.0, 280.0, 348.0, 291.0, 358.0, 301.0, 367.0, 311.0, 376.0, 322.0, 385.0, 335.0, 396.0, 349.0, 402.0, 359.0, 408.0, 369.0, 411.0, 376.0, 413.0, 382.0, 415.0, 386.0, 415.0, 388.0, 415.0, 390.0, 415.0, 391.0, 415.0, 392.0, 415.0, 393.0, 413.0, 393.0, 410.0, 393.0, 399.0, 393.0, 393.0, 392.0, 387.0, 389.0, 384.0, 387.0, 379.0, 384.0, 376.0, 379.0, 374.0, 374.0, 370.0, 365.0, 369.0, 357.0, 369.0, 350.0, 369.0, 345.0, 369.0, 339.0, 369.0, 335.0, 370.0, 329.0, 372.0, 322.0, 374.0, 315.0, 376.0, 307.0, 378.0, 301.0, 380.0, 294.0, 382.0, 289.0, 383.0, 283.0, 383.0, 276.0, 384.0, 272.0, 384.0, 265.0, 384.0, 262.0, 384.0, 260.0, 384.0, 259.0, 384.0, 258.0, 384.0, 257.0, 384.0, 258.0, 384.0, 259.0, 384.0, 260.0, 385.0, 262.0, 385.0, 263.0, 387.0, 264.0, 388.0, 267.0, 390.0, 268.0, 392.0, 270.0, 395.0, 272.0, 400.0, 273.0, 404.0, 273.0, 407.0, 273.0, 410.0, 273.0, 412.0, 273.0, 413.0, 273.0, 414.0, 271.0, 415.0, 271.0, 415.0, 269.0, 415.0, 268.0] -> [0, 0, 1, 0, 0]
[345.0, 324.0, 345.0, 323.0, 345.0, 322.0, 344.0, 320.0, 343.0, 318.0, 342.0, 317.0, 340.0, 313.0, 336.0, 310.0, 334.0, 305.0, 330.0, 302.0, 326.0, 299.0, 322.0, 295.0, 316.0, 292.0, 311.0, 290.0, 308.0, 289.0, 304.0, 288.0, 299.0, 288.0, 296.0, 288.0, 294.0, 288.0, 293.0, 288.0, 292.0, 288.0, 290.0, 288.0, 289.0, 290.0, 287.0, 291.0, 287.0, 292.0, 285.0, 295.0, 285.0, 296.0, 283.0, 298.0, 282.0, 300.0, 282.0, 302.0, 280.0, 306.0, 279.0, 308.0, 278.0, 312.0, 278.0, 315.0, 278.0, 319.0, 278.0, 323.0, 278.0, 326.0, 278.0, 329.0, 278.0, 331.0, 279.0, 333.0, 279.0, 334.0, 281.0, 336.0, 281.0, 337.0, 283.0, 338.0, 284.0, 339.0, 286.0, 340.0, 288.0, 341.0, 292.0, 341.0, 296.0, 342.0, 300.0, 343.0, 306.0, 344.0, 309.0, 345.0, 312.0, 345.0, 315.0, 346.0, 317.0, 346.0, 318.0, 346.0, 321.0, 346.0, 323.0, 346.0, 325.0, 346.0, 326.0, 345.0, 328.0, 344.0, 330.0, 342.0, 333.0, 339.0, 339.0, 332.0, 342.0, 328.0, 344.0, 326.0, 346.0, 324.0, 348.0, 321.0, 350.0, 318.0, 353.0, 314.0, 355.0, 309.0, 358.0, 302.0, 361.0, 296.0, 362.0, 289.0, 365.0, 282.0, 367.0, 276.0, 370.0, 269.0, 372.0, 265.0, 373.0, 259.0, 374.0, 255.0, 375.0, 252.0, 376.0, 248.0, 376.0, 244.0, 376.0, 241.0, 378.0, 236.0, 379.0, 232.0, 381.0, 226.0, 383.0, 221.0, 384.0, 218.0, 384.0, 216.0, 385.0, 213.0, 388.0, 207.0, 389.0, 203.0, 391.0, 201.0, 392.0, 199.0, 393.0, 196.0, 394.0, 195.0, 395.0, 194.0, 396.0, 192.0, 398.0, 191.0, 400.0, 188.0, 402.0, 187.0, 405.0, 185.0, 406.0, 185.0, 408.0, 183.0, 409.0, 183.0, 410.0, 183.0, 411.0, 182.0, 412.0, 182.0, 414.0, 182.0, 415.0, 182.0, 416.0, 182.0, 416.0, 183.0, 416.0, 184.0, 416.0, 185.0, 416.0, 186.0, 416.0, 187.0, 416.0, 188.0, 416.0, 189.0, 416.0, 190.0, 416.0, 191.0, 416.0, 192.0, 416.0, 193.0, 415.0, 193.0] -> [0, 0, 0, 1, 0]
[351.0, 206.0, 349.0, 206.0, 344.0, 204.0, 336.0, 202.0, 327.0, 200.0, 312.0, 198.0, 297.0, 198.0, 284.0, 198.0, 272.0, 199.0, 262.0, 203.0, 256.0, 206.0, 252.0, 210.0, 251.0, 212.0, 249.0, 215.0, 248.0, 219.0, 247.0, 222.0, 247.0, 225.0, 247.0, 229.0, 247.0, 233.0, 247.0, 238.0, 247.0, 244.0, 249.0, 248.0, 252.0, 253.0, 253.0, 256.0, 257.0, 260.0, 263.0, 264.0, 270.0, 268.0, 279.0, 272.0, 287.0, 274.0, 294.0, 276.0, 299.0, 276.0, 304.0, 277.0, 308.0, 277.0, 311.0, 277.0, 318.0, 277.0, 321.0, 275.0, 323.0, 274.0, 325.0, 274.0, 325.0, 273.0, 326.0, 273.0, 326.0, 272.0, 326.0, 271.0, 323.0, 270.0, 318.0, 270.0, 312.0, 270.0, 302.0, 270.0, 290.0, 270.0, 278.0, 270.0, 266.0, 270.0, 257.0, 271.0, 247.0, 274.0, 240.0, 276.0, 233.0, 278.0, 226.0, 281.0, 220.0, 283.0, 216.0, 285.0, 212.0, 286.0, 210.0, 288.0, 208.0, 289.0, 207.0, 291.0, 206.0, 294.0, 204.0, 297.0, 204.0, 309.0, 204.0, 316.0, 204.0, 322.0, 204.0, 327.0, 204.0, 331.0, 205.0, 337.0, 207.0, 341.0, 209.0, 346.0, 212.0, 352.0, 214.0, 357.0, 218.0, 360.0, 225.0, 367.0, 233.0, 372.0, 243.0, 378.0, 252.0, 383.0, 261.0, 387.0, 273.0, 390.0, 288.0, 393.0, 303.0, 394.0, 317.0, 394.0, 330.0, 394.0, 341.0, 393.0, 351.0, 392.0, 357.0, 390.0, 361.0, 388.0, 363.0, 387.0, 365.0, 386.0, 366.0, 386.0] -> [0, 0, 0, 0, 1]
[417.0, 347.0, 416.0, 347.0, 416.0, 346.0, 416.0, 345.0, 415.0, 345.0, 415.0, 343.0, 413.0, 342.0, 412.0, 339.0, 404.0, 330.0, 389.0, 312.0, 362.0, 281.0, 329.0, 245.0, 299.0, 211.0, 277.0, 188.0, 264.0, 173.0, 254.0, 165.0, 248.0, 162.0, 243.0, 160.0, 239.0, 160.0, 237.0, 161.0, 235.0, 163.0, 231.0, 169.0, 226.0, 178.0, 223.0, 189.0, 218.0, 219.0, 216.0, 237.0, 216.0, 250.0, 216.0, 261.0, 216.0, 269.0, 217.0, 275.0, 218.0, 278.0, 220.0, 281.0, 224.0, 287.0, 228.0, 292.0, 234.0, 298.0, 241.0, 306.0, 248.0, 312.0, 254.0, 318.0, 260.0, 322.0, 266.0, 325.0, 274.0, 327.0, 283.0, 328.0, 295.0, 329.0, 307.0, 329.0, 317.0, 328.0, 327.0, 326.0, 334.0, 323.0, 339.0, 320.0, 342.0, 319.0, 346.0, 316.0, 348.0, 313.0, 352.0, 308.0, 357.0, 300.0, 364.0, 289.0, 372.0, 271.0, 383.0, 248.0, 392.0, 225.0, 398.0, 208.0, 404.0, 193.0, 408.0, 183.0, 412.0, 174.0, 419.0, 159.0, 422.0, 153.0, 424.0, 149.0, 427.0, 145.0, 429.0, 143.0, 431.0, 141.0, 433.0, 139.0, 436.0, 137.0, 438.0, 135.0, 443.0, 132.0, 447.0, 130.0, 453.0, 129.0, 457.0, 128.0, 461.0, 128.0, 464.0, 128.0, 466.0, 128.0, 468.0, 129.0, 469.0, 129.0, 470.0, 131.0, 471.0, 131.0, 473.0, 132.0, 473.0, 133.0, 474.0, 135.0, 474.0, 136.0, 474.0, 137.0, 474.0, 138.0, 474.0, 140.0, 474.0, 141.0, 472.0, 143.0, 469.0, 145.0, 463.0, 147.0, 459.0, 149.0, 456.0, 150.0, 454.0, 150.0, 453.0, 150.0, 452.0, 150.0, 452.0, 151.0] -> [1, 0, 0, 0, 0]
[275.0, 346.0, 273.0, 346.0, 271.0, 346.0, 268.0, 347.0, 266.0, 349.0, 263.0, 350.0, 262.0, 352.0, 261.0, 354.0, 259.0, 355.0, 259.0, 357.0, 258.0, 360.0, 258.0, 361.0, 258.0, 363.0, 259.0, 364.0, 261.0, 366.0, 265.0, 368.0, 267.0, 369.0, 270.0, 370.0, 273.0, 370.0, 276.0, 371.0, 279.0, 371.0, 283.0, 370.0, 288.0, 365.0, 296.0, 354.0, 306.0, 337.0, 317.0, 316.0, 325.0, 296.0, 333.0, 274.0, 338.0, 257.0, 342.0, 245.0, 351.0, 223.0, 354.0, 213.0, 359.0, 206.0, 362.0, 200.0, 366.0, 191.0, 370.0, 187.0, 374.0, 182.0, 378.0, 179.0, 383.0, 175.0, 387.0, 174.0, 393.0, 174.0, 398.0, 174.0, 404.0, 176.0, 409.0, 179.0, 415.0, 184.0, 417.0, 188.0, 422.0, 192.0, 425.0, 198.0, 427.0, 204.0, 427.0, 211.0, 427.0, 219.0, 425.0, 225.0, 422.0, 231.0, 420.0, 234.0, 418.0, 236.0, 415.0, 239.0, 412.0, 241.0, 405.0, 244.0, 397.0, 247.0, 392.0, 249.0, 386.0, 250.0, 383.0, 251.0, 381.0, 251.0, 380.0, 252.0, 379.0, 252.0, 378.0, 252.0, 376.0, 252.0, 375.0, 252.0, 378.0, 252.0, 381.0, 252.0, 383.0, 252.0, 389.0, 252.0, 393.0, 252.0, 399.0, 253.0, 403.0, 255.0, 407.0, 256.0, 413.0, 259.0, 418.0, 261.0, 424.0, 263.0, 430.0, 266.0, 434.0, 270.0, 439.0, 273.0, 444.0, 277.0, 447.0, 282.0, 450.0, 285.0, 453.0, 291.0, 456.0, 297.0, 457.0, 303.0, 458.0, 307.0, 458.0, 311.0, 458.0, 316.0, 458.0, 321.0, 457.0, 326.0, 454.0, 330.0, 452.0, 333.0, 448.0, 337.0, 443.0, 342.0, 437.0, 346.0, 429.0, 349.0, 421.0, 352.0, 410.0, 353.0, 400.0, 354.0, 391.0, 354.0, 382.0, 354.0, 374.0, 354.0, 365.0, 353.0, 357.0, 350.0, 348.0, 346.0, 340.0, 340.0, 331.0, 334.0, 319.0, 325.0, 316.0, 322.0, 314.0, 320.0, 314.0, 319.0, 313.0, 319.0, 313.0, 318.0] -> [0, 1, 0, 0, 0]
[269.0, 206.0, 270.0, 206.0, 272.0, 206.0, 277.0, 212.0, 285.0, 220.0, 296.0, 232.0, 308.0, 247.0, 319.0, 259.0, 326.0, 269.0, 335.0, 278.0, 343.0, 288.0, 350.0, 299.0, 355.0, 309.0, 359.0, 317.0, 363.0, 326.0, 365.0, 333.0, 366.0, 338.0, 366.0, 344.0, 366.0, 349.0, 365.0, 356.0, 363.0, 360.0, 361.0, 362.0, 359.0, 363.0, 356.0, 364.0, 353.0, 365.0, 346.0, 365.0, 338.0, 363.0, 328.0, 357.0, 318.0, 352.0, 309.0, 344.0, 302.0, 338.0, 297.0, 330.0, 291.0, 321.0, 287.0, 308.0, 286.0, 299.0, 285.0, 289.0, 285.0, 283.0, 285.0, 277.0, 287.0, 266.0, 287.0, 262.0, 289.0, 256.0, 291.0, 247.0, 294.0, 239.0, 296.0, 230.0, 298.0, 219.0, 299.0, 211.0, 300.0, 202.0, 300.0, 197.0, 300.0, 193.0, 300.0, 191.0, 300.0, 190.0, 300.0, 189.0, 300.0, 188.0, 300.0, 187.0, 300.0, 186.0, 300.0, 185.0, 300.0, 184.0, 300.0, 185.0, 300.0, 187.0, 300.0, 188.0, 300.0, 190.0, 300.0, 191.0, 300.0, 192.0, 301.0, 192.0, 302.0, 193.0, 304.0, 194.0, 305.0, 195.0, 307.0, 196.0, 310.0, 198.0, 314.0, 198.0, 316.0, 199.0, 318.0, 200.0, 321.0, 200.0, 323.0, 200.0, 324.0, 200.0, 326.0, 200.0, 327.0, 200.0, 328.0, 200.0, 329.0, 199.0, 329.0, 198.0, 329.0, 197.0, 329.0, 196.0, 329.0, 195.0] -> [0, 0, 1, 0, 0]
[360.0, 345.0, 359.0, 345.0, 359.0, 344.0, 357.0, 343.0, 354.0, 340.0, 348.0, 335.0, 339.0, 327.0, 328.0, 319.0, 317.0, 314.0, 306.0, 310.0, 296.0, 310.0, 288.0, 310.0, 282.0, 310.0, 278.0, 311.0, 276.0, 313.0, 271.0, 319.0, 268.0, 326.0, 265.0, 333.0, 263.0, 342.0, 262.0, 352.0, 262.0, 362.0, 262.0, 370.0, 262.0, 378.0, 262.0, 383.0, 262.0, 389.0, 265.0, 393.0, 268.0, 397.0, 273.0, 402.0, 281.0, 408.0, 289.0, 414.0, 296.0, 418.0, 304.0, 421.0, 310.0, 422.0, 315.0, 422.0, 319.0, 422.0, 322.0, 420.0, 326.0, 418.0, 328.0, 414.0, 333.0, 408.0, 338.0, 400.0, 343.0, 389.0, 349.0, 374.0, 355.0, 360.0, 361.0, 347.0, 365.0, 336.0, 368.0, 328.0, 371.0, 322.0, 374.0, 316.0, 380.0, 305.0, 382.0, 298.0, 385.0, 291.0, 387.0, 283.0, 389.0, 273.0, 393.0, 262.0, 395.0, 250.0, 398.0, 239.0, 399.0, 231.0, 401.0, 224.0, 402.0, 221.0, 403.0, 217.0, 404.0, 213.0, 405.0, 210.0, 407.0, 206.0, 408.0, 203.0, 409.0, 201.0, 410.0, 197.0, 411.0, 196.0, 412.0, 195.0, 413.0, 194.0, 414.0, 193.0, 416.0, 193.0, 417.0, 193.0, 418.0, 193.0, 419.0, 193.0, 420.0, 193.0, 421.0, 193.0, 423.0, 193.0, 425.0, 194.0, 426.0, 194.0, 427.0, 196.0, 428.0, 196.0, 428.0, 197.0, 429.0, 198.0, 429.0, 199.0, 429.0, 200.0, 429.0, 201.0, 428.0, 201.0, 427.0, 202.0, 426.0, 202.0, 425.0, 202.0, 424.0, 202.0, 423.0, 202.0, 422.0, 202.0, 422.0, 201.0] -> [0, 0, 0, 1, 0]
[361.0, 266.0, 359.0, 266.0, 358.0, 266.0, 355.0, 266.0, 353.0, 266.0, 350.0, 266.0, 345.0, 266.0, 338.0, 266.0, 326.0, 266.0, 313.0, 266.0, 299.0, 268.0, 290.0, 269.0, 280.0, 272.0, 273.0, 274.0, 269.0, 277.0, 265.0, 279.0, 262.0, 282.0, 259.0, 287.0, 257.0, 291.0, 255.0, 296.0, 254.0, 300.0, 254.0, 302.0, 254.0, 304.0, 254.0, 307.0, 254.0, 308.0, 256.0, 310.0, 267.0, 316.0, 274.0, 318.0, 281.0, 320.0, 288.0, 322.0, 294.0, 324.0, 301.0, 324.0, 307.0, 325.0, 312.0, 325.0, 318.0, 326.0, 322.0, 326.0, 324.0, 326.0, 327.0, 326.0, 329.0, 326.0, 330.0, 326.0, 331.0, 326.0, 332.0, 326.0, 332.0, 325.0, 331.0, 324.0, 325.0, 322.0, 314.0, 320.0, 298.0, 319.0, 281.0, 317.0, 264.0, 317.0, 252.0, 317.0, 239.0, 317.0, 228.0, 317.0, 220.0, 321.0, 213.0, 324.0, 207.0, 327.0, 203.0, 329.0, 200.0, 333.0, 197.0, 336.0, 194.0, 341.0, 191.0, 347.0, 189.0, 353.0, 188.0, 358.0, 187.0, 364.0, 186.0, 368.0, 186.0, 373.0, 186.0, 377.0, 186.0, 380.0, 186.0, 382.0, 187.0, 384.0, 188.0, 386.0, 191.0, 390.0, 197.0, 394.0, 203.0, 398.0, 212.0, 403.0, 220.0, 407.0, 231.0, 413.0, 243.0, 417.0, 257.0, 421.0, 269.0, 423.0, 281.0, 424.0, 291.0, 425.0, 304.0, 425.0, 309.0, 425.0, 314.0, 425.0, 318.0, 424.0, 323.0, 421.0, 329.0, 418.0, 335.0, 413.0, 342.0, 408.0, 347.0, 403.0, 351.0, 401.0, 353.0, 399.0] -> [0, 0, 0, 0, 1]
[368.0, 329.0, 368.0, 328.0, 366.0, 326.0, 365.0, 320.0, 363.0, 313.0, 361.0, 306.0, 358.0, 296.0, 355.0, 288.0, 351.0, 279.0, 345.0, 271.0, 339.0, 261.0, 331.0, 251.0, 323.0, 242.0, 315.0, 232.0, 308.0, 223.0, 301.0, 215.0, 293.0, 207.0, 285.0, 202.0, 278.0, 197.0, 271.0, 192.0, 263.0, 189.0, 258.0, 188.0, 252.0, 188.0, 248.0, 188.0, 243.0, 188.0, 238.0, 189.0, 232.0, 194.0, 226.0, 202.0, 221.0, 209.0, 214.0, 219.0, 208.0, 229.0, 203.0, 239.0, 200.0, 248.0, 198.0, 258.0, 197.0, 266.0, 197.0, 274.0, 197.0, 282.0, 198.0, 295.0, 200.0, 299.0, 204.0, 304.0, 212.0, 310.0, 223.0, 318.0, 236.0, 328.0, 249.0, 335.0, 260.0, 341.0, 271.0, 345.0, 280.0, 347.0, 285.0, 349.0, 289.0, 349.0, 292.0, 349.0, 295.0, 348.0, 299.0, 343.0, 305.0, 333.0, 313.0, 313.0, 325.0, 282.0, 333.0, 258.0, 339.0, 243.0, 344.0, 229.0, 349.0, 218.0, 352.0, 209.0, 357.0, 203.0, 361.0, 195.0, 365.0, 189.0, 369.0, 181.0, 372.0, 174.0, 376.0, 168.0, 380.0, 161.0, 384.0, 154.0, 388.0, 148.0, 392.0, 142.0, 395.0, 137.0, 399.0, 132.0, 404.0, 128.0, 408.0, 125.0, 413.0, 123.0, 419.0, 121.0, 423.0, 120.0, 427.0, 120.0, 431.0, 122.0, 433.0, 124.0, 436.0, 127.0, 440.0, 132.0, 441.0, 135.0, 443.0, 139.0, 443.0, 141.0, 443.0, 142.0, 443.0, 143.0, 443.0, 144.0, 443.0, 145.0] -> [1, 0, 0, 0, 0]
[260.0, 362.0, 259.0, 362.0, 257.0, 362.0, 255.0, 363.0, 252.0, 363.0, 249.0, 365.0, 246.0, 366.0, 242.0, 367.0, 240.0, 369.0, 239.0, 370.0, 237.0, 372.0, 237.0, 374.0, 236.0, 375.0, 236.0, 377.0, 236.0, 378.0, 236.0, 380.0, 239.0, 381.0, 247.0, 387.0, 255.0, 391.0, 264.0, 395.0, 272.0, 398.0, 279.0, 398.0, 286.0, 398.0, 293.0, 395.0, 302.0, 387.0, 314.0, 370.0, 328.0, 344.0, 342.0, 313.0, 354.0, 284.0, 360.0, 267.0, 367.0, 250.0, 373.0, 235.0, 379.0, 224.0, 383.0, 217.0, 387.0, 212.0, 391.0, 207.0, 397.0, 202.0, 402.0, 198.0, 406.0, 195.0, 411.0, 193.0, 415.0, 191.0, 419.0, 189.0, 421.0, 189.0, 424.0, 189.0, 426.0, 189.0, 428.0, 189.0, 430.0, 189.0, 432.0, 190.0, 433.0, 190.0, 435.0, 193.0, 435.0, 196.0, 437.0, 200.0, 439.0, 205.0, 440.0, 212.0, 440.0, 217.0, 440.0, 221.0, 440.0, 224.0, 439.0, 228.0, 437.0, 230.0, 436.0, 230.0, 427.0, 235.0, 424.0, 236.0, 420.0, 237.0, 412.0, 238.0, 409.0, 238.0, 406.0, 238.0, 403.0, 238.0, 400.0, 238.0, 398.0, 238.0, 396.0, 238.0, 395.0, 238.0, 396.0, 238.0, 398.0, 238.0, 401.0, 238.0, 405.0, 238.0, 409.0, 238.0, 413.0, 238.0, 417.0, 238.0, 423.0, 238.0, 427.0, 239.0, 431.0, 241.0, 436.0, 242.0, 442.0, 244.0, 445.0, 247.0, 450.0, 250.0, 452.0, 253.0, 456.0, 256.0, 458.0, 259.0, 460.0, 261.0, 461.0, 264.0, 465.0, 269.0, 466.0, 272.0, 467.0, 276.0, 468.0, 278.0, 468.0, 280.0, 468.0, 283.0, 469.0, 286.0, 469.0, 289.0, 469.0, 291.0, 469.0, 295.0, 469.0, 301.0, 467.0, 305.0, 466.0, 310.0, 464.0, 314.0, 463.0, 317.0, 462.0, 320.0, 460.0, 323.0, 458.0, 325.0, 454.0, 329.0, 449.0, 334.0, 444.0, 337.0, 438.0, 343.0, 433.0, 345.0, 429.0, 348.0, 423.0, 352.0, 420.0, 353.0, 418.0, 354.0, 415.0, 355.0, 410.0, 355.0, 406.0, 356.0, 400.0, 357.0, 396.0, 357.0, 387.0, 357.0, 383.0, 357.0, 379.0, 357.0, 376.0, 357.0, 371.0, 357.0, 367.0, 357.0, 363.0, 356.0, 358.0, 353.0, 354.0, 351.0, 350.0, 347.0, 346.0, 345.0, 343.0, 341.0, 339.0, 339.0, 337.0, 335.0, 335.0, 333.0, 334.0, 331.0, 332.0, 330.0, 332.0, 329.0, 332.0, 328.0] -> [0, 1, 0, 0, 0]
[302.0, 223.0, 302.0, 224.0, 308.0, 229.0, 320.0, 238.0, 337.0, 253.0, 354.0, 267.0, 366.0, 276.0, 376.0, 285.0, 384.0, 293.0, 390.0, 299.0, 395.0, 306.0, 399.0, 315.0, 402.0, 325.0, 404.0, 334.0, 405.0, 341.0, 405.0, 348.0, 405.0, 353.0, 405.0, 357.0, 404.0, 362.0, 403.0, 365.0, 402.0, 366.0, 400.0, 368.0, 398.0, 369.0, 395.0, 370.0, 389.0, 371.0, 382.0, 371.0, 376.0, 371.0, 366.0, 370.0, 358.0, 367.0, 349.0, 362.0, 341.0, 356.0, 333.0, 348.0, 326.0, 338.0, 320.0, 328.0, 314.0, 319.0, 311.0, 308.0, 309.0, 296.0, 308.0, 285.0, 308.0, 276.0, 308.0, 267.0, 309.0, 260.0, 312.0, 253.0, 315.0, 247.0, 318.0, 242.0, 321.0, 237.0, 324.0, 232.0, 327.0, 227.0, 329.0, 222.0, 332.0, 214.0, 335.0, 207.0, 336.0, 200.0, 337.0, 192.0, 338.0, 185.0, 339.0, 179.0, 340.0, 172.0, 340.0, 165.0, 340.0, 159.0, 341.0, 156.0, 341.0, 154.0, 341.0, 153.0, 341.0, 154.0, 341.0, 156.0, 341.0, 158.0, 341.0, 161.0, 341.0, 163.0, 341.0, 164.0, 341.0, 166.0, 341.0, 169.0, 341.0, 171.0, 344.0, 174.0, 345.0, 177.0, 348.0, 181.0, 352.0, 185.0, 355.0, 187.0, 358.0, 189.0, 360.0, 189.0, 362.0, 189.0, 364.0, 189.0, 366.0, 189.0, 368.0, 189.0, 369.0, 187.0, 371.0, 185.0, 371.0, 183.0, 372.0, 181.0, 373.0, 180.0, 373.0, 179.0, 373.0, 178.0, 373.0, 177.0] -> [0, 0, 1, 0, 0]
[376.0, 342.0, 375.0, 341.0, 375.0, 340.0, 374.0, 339.0, 372.0, 338.0, 366.0, 333.0, 358.0, 327.0, 343.0, 318.0, 325.0, 308.0, 307.0, 301.0, 284.0, 294.0, 275.0, 293.0, 267.0, 293.0, 260.0, 293.0, 257.0, 293.0, 253.0, 295.0, 251.0, 297.0, 249.0, 300.0, 246.0, 307.0, 244.0, 316.0, 242.0, 325.0, 242.0, 333.0, 242.0, 339.0, 242.0, 345.0, 242.0, 352.0, 242.0, 360.0, 246.0, 367.0, 253.0, 376.0, 258.0, 383.0, 266.0, 391.0, 273.0, 398.0, 282.0, 402.0, 289.0, 406.0, 297.0, 409.0, 304.0, 410.0, 310.0, 410.0, 314.0, 410.0, 318.0, 408.0, 323.0, 404.0, 338.0, 384.0, 348.0, 367.0, 356.0, 352.0, 370.0, 329.0, 376.0, 320.0, 380.0, 313.0, 384.0, 307.0, 387.0, 300.0, 391.0, 292.0, 395.0, 285.0, 398.0, 277.0, 401.0, 268.0, 406.0, 258.0, 410.0, 246.0, 415.0, 232.0, 420.0, 218.0, 424.0, 206.0, 427.0, 196.0, 430.0, 190.0, 433.0, 184.0, 434.0, 181.0, 435.0, 179.0, 436.0, 178.0, 437.0, 177.0, 438.0, 176.0, 439.0, 176.0, 440.0, 176.0, 442.0, 177.0, 444.0, 178.0, 446.0, 182.0, 449.0, 187.0, 452.0, 193.0, 455.0, 200.0, 458.0, 206.0, 459.0, 211.0, 460.0, 213.0, 460.0, 215.0, 460.0, 216.0, 460.0, 217.0, 460.0, 218.0, 460.0, 219.0, 460.0, 220.0, 459.0, 220.0, 458.0, 220.0, 457.0, 220.0, 456.0, 220.0, 455.0, 220.0, 454.0, 220.0, 453.0, 220.0, 452.0, 220.0, 451.0, 220.0, 450.0, 220.0, 449.0, 220.0, 448.0, 220.0, 447.0, 220.0, 446.0, 220.0, 446.0, 219.0, 445.0, 219.0, 445.0, 218.0] -> [0, 0, 0, 1, 0]
[375.0, 192.0, 372.0, 192.0, 368.0, 192.0, 365.0, 191.0, 361.0, 189.0, 355.0, 187.0, 347.0, 185.0, 337.0, 183.0, 325.0, 182.0, 313.0, 181.0, 302.0, 181.0, 293.0, 181.0, 286.0, 182.0, 282.0, 183.0, 277.0, 185.0, 274.0, 186.0, 270.0, 189.0, 268.0, 191.0, 266.0, 194.0, 263.0, 196.0, 261.0, 199.0, 259.0, 202.0, 256.0, 205.0, 254.0, 208.0, 253.0, 211.0, 251.0, 214.0, 250.0, 218.0, 250.0, 221.0, 249.0, 226.0, 249.0, 234.0, 249.0, 237.0, 249.0, 240.0, 251.0, 245.0, 252.0, 247.0, 254.0, 249.0, 256.0, 251.0, 259.0, 254.0, 264.0, 257.0, 269.0, 260.0, 276.0, 265.0, 283.0, 269.0, 291.0, 272.0, 299.0, 276.0, 307.0, 278.0, 316.0, 280.0, 323.0, 281.0, 329.0, 281.0, 333.0, 281.0, 337.0, 281.0, 340.0, 281.0, 343.0, 281.0, 345.0, 281.0, 346.0, 281.0, 347.0, 281.0, 348.0, 280.0, 349.0, 280.0, 350.0, 279.0, 350.0, 278.0, 350.0, 277.0, 350.0, 276.0, 350.0, 275.0, 349.0, 274.0, 346.0, 274.0, 343.0, 274.0, 339.0, 274.0, 336.0, 274.0, 332.0, 274.0, 328.0, 274.0, 324.0, 274.0, 319.0, 275.0, 314.0, 276.0, 308.0, 278.0, 301.0, 280.0, 294.0, 282.0, 288.0, 284.0, 282.0, 286.0, 276.0, 288.0, 269.0, 290.0, 262.0, 293.0, 257.0, 295.0, 252.0, 297.0, 246.0, 299.0, 242.0, 300.0, 237.0, 302.0, 235.0, 304.0, 233.0, 304.0, 230.0, 309.0, 228.0, 311.0, 227.0, 315.0, 225.0, 320.0, 224.0, 325.0, 223.0, 331.0, 222.0, 337.0, 221.0, 344.0, 221.0, 352.0, 221.0, 358.0, 221.0, 366.0, 224.0, 374.0, 228.0, 380.0, 234.0, 386.0, 243.0, 392.0, 252.0, 399.0, 260.0, 403.0, 269.0, 406.0, 278.0, 408.0, 288.0, 409.0, 297.0, 410.0, 306.0, 410.0, 316.0, 410.0, 325.0, 410.0, 332.0, 409.0, 340.0, 407.0, 347.0, 405.0, 353.0, 403.0, 359.0, 401.0, 366.0, 399.0, 371.0, 397.0, 374.0, 395.0, 376.0, 394.0, 377.0, 394.0, 378.0, 394.0, 379.0, 394.0, 379.0, 392.0] -> [0, 0, 0, 0, 1]
[379.0, 352.0, 379.0, 351.0, 379.0, 349.0, 378.0, 346.0, 374.0, 340.0, 370.0, 332.0, 363.0, 319.0, 355.0, 304.0, 348.0, 291.0, 342.0, 279.0, 336.0, 270.0, 331.0, 262.0, 325.0, 255.0, 318.0, 247.0, 312.0, 240.0, 307.0, 234.0, 301.0, 229.0, 294.0, 224.0, 288.0, 220.0, 281.0, 216.0, 274.0, 213.0, 267.0, 212.0, 245.0, 214.0, 239.0, 216.0, 233.0, 220.0, 228.0, 225.0, 223.0, 230.0, 219.0, 236.0, 216.0, 242.0, 206.0, 276.0, 206.0, 284.0, 206.0, 295.0, 255.0, 331.0, 260.0, 331.0, 264.0, 331.0, 268.0, 331.0, 273.0, 331.0, 277.0, 331.0, 282.0, 329.0, 285.0, 327.0, 287.0, 325.0, 292.0, 321.0, 295.0, 318.0, 300.0, 311.0, 305.0, 304.0, 309.0, 297.0, 313.0, 288.0, 317.0, 281.0, 322.0, 273.0, 326.0, 264.0, 335.0, 246.0, 339.0, 236.0, 343.0, 226.0, 346.0, 218.0, 351.0, 211.0, 354.0, 204.0, 358.0, 198.0, 361.0, 192.0, 364.0, 186.0, 367.0, 181.0, 370.0, 177.0, 373.0, 174.0, 376.0, 170.0, 379.0, 168.0, 382.0, 166.0, 384.0, 165.0, 385.0, 165.0, 385.0, 166.0, 385.0, 167.0, 385.0, 168.0] -> [1, 0, 0, 0, 0]
[318.0, 333.0, 317.0, 333.0, 316.0, 333.0, 316.0, 335.0, 314.0, 335.0, 309.0, 341.0, 307.0, 342.0, 307.0, 344.0, 306.0, 345.0, 305.0, 346.0, 305.0, 347.0, 305.0, 348.0, 305.0, 349.0, 306.0, 350.0, 307.0, 350.0, 308.0, 350.0, 309.0, 350.0, 310.0, 350.0, 311.0, 350.0, 313.0, 350.0, 316.0, 348.0, 319.0, 346.0, 321.0, 344.0, 323.0, 341.0, 326.0, 339.0, 327.0, 338.0, 329.0, 335.0, 331.0, 333.0, 334.0, 328.0, 337.0, 324.0, 340.0, 317.0, 344.0, 308.0, 346.0, 301.0, 349.0, 294.0, 351.0, 287.0, 353.0, 279.0, 356.0, 269.0, 358.0, 261.0, 363.0, 252.0, 366.0, 244.0, 370.0, 238.0, 374.0, 233.0, 377.0, 228.0, 381.0, 225.0, 386.0, 221.0, 393.0, 218.0, 400.0, 215.0, 406.0, 212.0, 413.0, 211.0, 419.0, 210.0, 423.0, 209.0, 426.0, 209.0, 429.0, 209.0, 432.0, 209.0, 436.0, 209.0, 439.0, 209.0, 444.0, 209.0, 445.0, 209.0, 447.0, 209.0, 447.0, 210.0, 448.0, 210.0, 448.0, 211.0, 448.0, 213.0, 448.0, 214.0, 446.0, 217.0, 442.0, 222.0, 438.0, 229.0, 432.0, 236.0, 430.0, 239.0, 426.0, 244.0, 423.0, 247.0, 421.0, 250.0, 417.0, 253.0, 413.0, 256.0, 407.0, 259.0, 401.0, 263.0, 395.0, 266.0, 390.0, 269.0, 387.0, 270.0, 385.0, 271.0, 383.0, 272.0, 381.0, 273.0, 381.0, 272.0, 383.0, 270.0, 386.0, 269.0, 391.0, 269.0, 396.0, 268.0, 400.0, 268.0, 405.0, 268.0, 410.0, 268.0, 415.0, 268.0, 419.0, 268.0, 422.0, 269.0, 425.0, 271.0, 427.0, 272.0, 431.0, 274.0, 432.0, 275.0, 433.0, 277.0, 434.0, 277.0, 435.0, 278.0, 435.0, 279.0, 436.0, 280.0, 437.0, 282.0, 437.0, 285.0, 439.0, 288.0, 440.0, 291.0, 440.0, 294.0, 441.0, 298.0, 441.0, 304.0, 441.0, 308.0, 441.0, 315.0, 441.0, 318.0, 441.0, 321.0, 441.0, 324.0, 440.0, 326.0, 439.0, 328.0, 439.0, 331.0, 438.0, 332.0, 436.0, 333.0, 436.0, 334.0, 435.0, 335.0, 435.0, 336.0, 433.0, 336.0, 432.0, 337.0, 431.0, 338.0, 428.0, 339.0, 426.0, 339.0, 423.0, 339.0, 420.0, 340.0, 417.0, 340.0, 414.0, 341.0, 412.0, 341.0, 409.0, 341.0, 407.0, 341.0, 404.0, 341.0, 402.0, 341.0, 399.0, 341.0, 396.0, 341.0, 393.0, 341.0, 391.0, 341.0, 387.0, 339.0, 385.0, 339.0, 383.0, 337.0, 379.0, 335.0, 376.0, 333.0, 374.0, 333.0, 370.0, 330.0, 369.0, 328.0, 368.0, 327.0, 367.0, 326.0, 366.0, 325.0] -> [0, 1, 0, 0, 0]
[249.0, 188.0, 252.0, 188.0, 261.0, 193.0, 272.0, 201.0, 287.0, 211.0, 299.0, 223.0, 309.0, 230.0, 317.0, 238.0, 322.0, 245.0, 327.0, 252.0, 330.0, 261.0, 334.0, 271.0, 335.0, 280.0, 336.0, 289.0, 336.0, 299.0, 336.0, 308.0, 336.0, 317.0, 336.0, 328.0, 335.0, 331.0, 334.0, 332.0, 333.0, 333.0, 331.0, 335.0, 327.0, 337.0, 322.0, 337.0, 315.0, 337.0, 307.0, 336.0, 298.0, 331.0, 292.0, 326.0, 286.0, 321.0, 282.0, 314.0, 276.0, 305.0, 273.0, 293.0, 271.0, 281.0, 271.0, 269.0, 271.0, 258.0, 272.0, 250.0, 274.0, 243.0, 277.0, 236.0, 280.0, 230.0, 284.0, 222.0, 288.0, 215.0, 294.0, 207.0, 298.0, 199.0, 301.0, 192.0, 303.0, 186.0, 305.0, 182.0, 305.0, 178.0, 306.0, 175.0, 306.0, 170.0, 306.0, 167.0, 306.0, 164.0, 306.0, 162.0, 306.0, 161.0, 306.0, 160.0, 305.0, 160.0, 304.0, 160.0, 304.0, 161.0, 304.0, 162.0, 304.0, 163.0, 304.0, 164.0, 304.0, 165.0, 304.0, 166.0, 305.0, 168.0, 306.0, 170.0, 307.0, 171.0, 308.0, 173.0, 311.0, 174.0, 313.0, 176.0, 316.0, 178.0, 318.0, 179.0, 321.0, 180.0, 324.0, 181.0, 326.0, 181.0, 328.0, 181.0, 329.0, 181.0, 332.0, 181.0, 333.0, 180.0, 334.0, 178.0, 335.0, 177.0, 336.0, 175.0, 336.0, 174.0, 336.0, 173.0, 337.0, 173.0, 337.0, 172.0] -> [0, 0, 1, 0, 0]
[328.0, 322.0, 327.0, 321.0, 327.0, 320.0, 325.0, 319.0, 323.0, 317.0, 317.0, 313.0, 307.0, 307.0, 296.0, 303.0, 284.0, 298.0, 272.0, 294.0, 261.0, 291.0, 252.0, 287.0, 245.0, 286.0, 241.0, 286.0, 237.0, 286.0, 235.0, 286.0, 233.0, 288.0, 232.0, 290.0, 231.0, 293.0, 230.0, 298.0, 228.0, 307.0, 227.0, 319.0, 227.0, 330.0, 227.0, 339.0, 228.0, 346.0, 230.0, 352.0, 232.0, 355.0, 237.0, 359.0, 243.0, 364.0, 258.0, 372.0, 265.0, 374.0, 270.0, 374.0, 275.0, 375.0, 280.0, 375.0, 282.0, 375.0, 286.0, 375.0, 289.0, 375.0, 293.0, 373.0, 298.0, 369.0, 300.0, 367.0, 305.0, 360.0, 311.0, 350.0, 318.0, 338.0, 326.0, 324.0, 333.0, 309.0, 342.0, 291.0, 350.0, 271.0, 362.0, 243.0, 367.0, 233.0, 371.0, 225.0, 373.0, 218.0, 376.0, 211.0, 378.0, 203.0, 379.0, 197.0, 380.0, 191.0, 382.0, 184.0, 383.0, 178.0, 384.0, 175.0, 385.0, 171.0, 385.0, 170.0, 386.0, 168.0, 388.0, 167.0, 391.0, 166.0, 392.0, 166.0, 393.0, 167.0, 393.0, 169.0, 393.0, 172.0, 394.0, 175.0, 394.0, 178.0, 395.0, 179.0, 395.0, 180.0, 395.0, 181.0, 395.0, 182.0, 395.0, 183.0, 395.0, 184.0, 395.0, 185.0, 395.0, 186.0, 394.0, 186.0, 393.0, 187.0, 392.0, 187.0, 391.0, 187.0] -> [0, 0, 0, 1, 0]
[380.0, 199.0, 379.0, 198.0, 377.0, 198.0, 374.0, 196.0, 367.0, 195.0, 357.0, 193.0, 349.0, 191.0, 341.0, 189.0, 333.0, 188.0, 325.0, 187.0, 318.0, 186.0, 312.0, 186.0, 307.0, 186.0, 303.0, 186.0, 299.0, 186.0, 296.0, 187.0, 294.0, 187.0, 293.0, 188.0, 291.0, 189.0, 290.0, 190.0, 289.0, 191.0, 286.0, 195.0, 285.0, 197.0, 283.0, 200.0, 281.0, 203.0, 281.0, 206.0, 279.0, 209.0, 278.0, 211.0, 277.0, 214.0, 276.0, 217.0, 275.0, 220.0, 274.0, 223.0, 274.0, 228.0, 274.0, 232.0, 273.0, 238.0, 273.0, 241.0, 273.0, 243.0, 273.0, 247.0, 274.0, 249.0, 277.0, 253.0, 279.0, 255.0, 284.0, 257.0, 287.0, 259.0, 292.0, 262.0, 296.0, 265.0, 299.0, 266.0, 305.0, 268.0, 310.0, 270.0, 313.0, 271.0, 317.0, 273.0, 320.0, 273.0, 323.0, 273.0, 326.0, 274.0, 328.0, 274.0, 330.0, 274.0, 331.0, 274.0, 332.0, 274.0, 334.0, 274.0, 335.0, 274.0, 333.0, 274.0, 330.0, 274.0, 325.0, 274.0, 319.0, 272.0, 314.0, 271.0, 307.0, 271.0, 300.0, 271.0, 294.0, 271.0, 287.0, 271.0, 280.0, 272.0, 274.0, 274.0, 267.0, 277.0, 261.0, 280.0, 255.0, 283.0, 249.0, 287.0, 243.0, 291.0, 238.0, 293.0, 235.0, 296.0, 232.0, 299.0, 229.0, 301.0, 228.0, 302.0, 225.0, 305.0, 225.0, 308.0, 223.0, 310.0, 222.0, 313.0, 222.0, 316.0, 221.0, 320.0, 221.0, 325.0, 221.0, 328.0, 221.0, 331.0, 221.0, 333.0, 221.0, 335.0, 222.0, 337.0, 224.0, 339.0, 226.0, 342.0, 229.0, 345.0, 235.0, 348.0, 241.0, 353.0, 256.0, 361.0, 262.0, 365.0, 269.0, 368.0, 276.0, 372.0, 283.0, 375.0, 290.0, 377.0, 297.0, 379.0, 303.0, 381.0, 308.0, 382.0, 312.0, 383.0, 316.0, 383.0, 320.0, 383.0, 324.0, 383.0, 328.0, 383.0, 332.0, 382.0, 334.0, 380.0, 337.0, 380.0, 340.0, 378.0, 343.0, 376.0, 345.0, 376.0, 347.0, 375.0, 348.0, 374.0, 349.0, 374.0] -> [0, 0, 0, 0, 1]
[435.0, 325.0, 435.0, 324.0, 435.0, 323.0, 435.0, 321.0, 433.0, 318.0, 430.0, 313.0, 426.0, 307.0, 421.0, 296.0, 412.0, 281.0, 404.0, 270.0, 398.0, 259.0, 391.0, 251.0, 386.0, 244.0, 380.0, 239.0, 374.0, 234.0, 368.0, 228.0, 355.0, 220.0, 350.0, 217.0, 344.0, 216.0, 337.0, 214.0, 330.0, 213.0, 322.0, 213.0, 313.0, 213.0, 306.0, 214.0, 297.0, 216.0, 293.0, 218.0, 288.0, 221.0, 284.0, 224.0, 282.0, 226.0, 279.0, 231.0, 276.0, 237.0, 273.0, 245.0, 271.0, 253.0, 269.0, 260.0, 269.0, 268.0, 268.0, 274.0, 268.0, 278.0, 268.0, 282.0, 268.0, 285.0, 271.0, 290.0, 275.0, 295.0, 281.0, 301.0, 288.0, 307.0, 298.0, 314.0, 307.0, 321.0, 315.0, 326.0, 325.0, 330.0, 332.0, 334.0, 341.0, 337.0, 347.0, 338.0, 353.0, 339.0, 359.0, 339.0, 364.0, 339.0, 370.0, 338.0, 375.0, 336.0, 379.0, 333.0, 383.0, 329.0, 387.0, 324.0, 392.0, 318.0, 397.0, 311.0, 402.0, 305.0, 409.0, 296.0, 415.0, 286.0, 422.0, 275.0, 428.0, 264.0, 434.0, 257.0, 438.0, 249.0, 442.0, 242.0, 446.0, 236.0, 452.0, 229.0, 461.0, 218.0, 466.0, 212.0, 471.0, 204.0, 476.0, 198.0, 482.0, 193.0, 487.0, 187.0, 493.0, 182.0, 499.0, 178.0, 504.0, 175.0, 507.0, 174.0, 510.0, 173.0, 512.0, 173.0, 513.0, 173.0, 514.0, 173.0, 515.0, 173.0, 515.0, 174.0, 515.0, 176.0, 516.0, 179.0, 516.0, 182.0, 516.0, 184.0, 516.0, 186.0, 516.0, 187.0, 516.0, 189.0, 516.0, 190.0, 516.0, 191.0, 516.0, 192.0] -> [1, 0, 0, 0, 0]
[282.0, 337.0, 281.0, 337.0, 280.0, 336.0, 278.0, 336.0, 276.0, 336.0, 272.0, 336.0, 268.0, 336.0, 265.0, 336.0, 262.0, 336.0, 260.0, 336.0, 259.0, 336.0, 258.0, 337.0, 257.0, 337.0, 256.0, 339.0, 256.0, 340.0, 255.0, 342.0, 255.0, 345.0, 255.0, 346.0, 255.0, 349.0, 255.0, 350.0, 255.0, 352.0, 256.0, 354.0, 258.0, 355.0, 261.0, 357.0, 264.0, 358.0, 268.0, 360.0, 274.0, 361.0, 281.0, 362.0, 285.0, 362.0, 290.0, 362.0, 293.0, 362.0, 296.0, 361.0, 300.0, 360.0, 302.0, 357.0, 305.0, 353.0, 310.0, 345.0, 317.0, 333.0, 325.0, 317.0, 335.0, 297.0, 344.0, 276.0, 353.0, 260.0, 360.0, 247.0, 367.0, 239.0, 373.0, 231.0, 380.0, 225.0, 389.0, 218.0, 398.0, 213.0, 406.0, 209.0, 416.0, 203.0, 423.0, 200.0, 430.0, 198.0, 440.0, 194.0, 444.0, 194.0, 446.0, 194.0, 448.0, 194.0, 450.0, 194.0, 452.0, 196.0, 453.0, 199.0, 455.0, 202.0, 457.0, 209.0, 459.0, 216.0, 460.0, 223.0, 460.0, 230.0, 460.0, 234.0, 459.0, 238.0, 457.0, 242.0, 456.0, 243.0, 454.0, 245.0, 450.0, 247.0, 446.0, 249.0, 441.0, 251.0, 437.0, 253.0, 431.0, 253.0, 425.0, 254.0, 420.0, 254.0, 416.0, 255.0, 412.0, 255.0, 409.0, 255.0, 408.0, 255.0, 411.0, 255.0, 413.0, 255.0, 417.0, 255.0, 420.0, 255.0, 424.0, 255.0, 427.0, 255.0, 432.0, 257.0, 438.0, 259.0, 444.0, 262.0, 450.0, 265.0, 456.0, 269.0, 459.0, 271.0, 463.0, 273.0, 465.0, 275.0, 466.0, 276.0, 468.0, 278.0, 469.0, 281.0, 470.0, 283.0, 471.0, 285.0, 471.0, 288.0, 471.0, 290.0, 472.0, 293.0, 472.0, 297.0, 472.0, 301.0, 472.0, 306.0, 472.0, 309.0, 470.0, 313.0, 468.0, 316.0, 467.0, 319.0, 465.0, 322.0, 462.0, 326.0, 460.0, 328.0, 452.0, 334.0, 448.0, 337.0, 444.0, 340.0, 439.0, 343.0, 434.0, 345.0, 431.0, 347.0, 426.0, 349.0, 421.0, 351.0, 415.0, 352.0, 410.0, 352.0, 403.0, 352.0, 396.0, 352.0, 391.0, 352.0, 386.0, 351.0, 382.0, 350.0, 377.0, 347.0, 374.0, 345.0, 369.0, 343.0, 366.0, 339.0, 363.0, 337.0, 362.0, 335.0, 360.0, 333.0] -> [0, 1, 0, 0, 0]
[336.0, 144.0, 336.0, 145.0, 336.0, 146.0, 337.0, 147.0, 341.0, 150.0, 349.0, 158.0, 361.0, 170.0, 381.0, 187.0, 398.0, 201.0, 413.0, 213.0, 422.0, 222.0, 429.0, 230.0, 437.0, 237.0, 442.0, 245.0, 446.0, 252.0, 449.0, 260.0, 452.0, 269.0, 453.0, 278.0, 454.0, 290.0, 454.0, 302.0, 454.0, 313.0, 454.0, 322.0, 453.0, 328.0, 453.0, 331.0, 451.0, 333.0, 451.0, 334.0, 448.0, 336.0, 446.0, 336.0, 442.0, 336.0, 437.0, 336.0, 430.0, 334.0, 420.0, 330.0, 413.0, 325.0, 405.0, 319.0, 398.0, 312.0, 391.0, 300.0, 387.0, 289.0, 382.0, 275.0, 380.0, 260.0, 380.0, 236.0, 380.0, 226.0, 381.0, 215.0, 383.0, 203.0, 386.0, 192.0, 390.0, 180.0, 392.0, 167.0, 394.0, 158.0, 396.0, 148.0, 398.0, 141.0, 399.0, 134.0, 399.0, 130.0, 400.0, 127.0, 400.0, 124.0, 400.0, 122.0, 399.0, 123.0, 399.0, 124.0, 399.0, 125.0, 399.0, 126.0, 399.0, 128.0, 399.0, 130.0, 399.0, 131.0, 400.0, 134.0, 402.0, 138.0, 405.0, 142.0, 409.0, 147.0, 413.0, 151.0, 420.0, 157.0, 426.0, 161.0, 430.0, 164.0, 435.0, 165.0, 437.0, 166.0, 439.0, 166.0, 440.0, 166.0, 442.0, 166.0, 443.0, 165.0, 443.0, 164.0, 444.0, 162.0, 444.0, 160.0, 444.0, 159.0, 444.0, 158.0] -> [0, 0, 1, 0, 0]
[285.0, 315.0, 285.0, 314.0, 284.0, 314.0, 283.0, 313.0, 281.0, 310.0, 275.0, 306.0, 266.0, 302.0, 255.0, 299.0, 246.0, 296.0, 236.0, 294.0, 229.0, 294.0, 224.0, 294.0, 220.0, 294.0, 218.0, 294.0, 215.0, 294.0, 213.0, 296.0, 211.0, 298.0, 209.0, 301.0, 207.0, 305.0, 205.0, 308.0, 204.0, 311.0, 204.0, 313.0, 204.0, 316.0, 205.0, 318.0, 206.0, 321.0, 209.0, 323.0, 219.0, 331.0, 225.0, 334.0, 232.0, 337.0, 245.0, 340.0, 251.0, 340.0, 257.0, 340.0, 262.0, 340.0, 267.0, 340.0, 270.0, 338.0, 272.0, 337.0, 275.0, 334.0, 281.0, 328.0, 287.0, 317.0, 296.0, 302.0, 308.0, 281.0, 319.0, 258.0, 330.0, 235.0, 337.0, 219.0, 343.0, 208.0, 349.0, 198.0, 355.0, 190.0, 360.0, 183.0, 365.0, 177.0, 370.0, 172.0, 374.0, 168.0, 379.0, 164.0, 381.0, 161.0, 382.0, 160.0, 384.0, 159.0, 385.0, 159.0, 386.0, 160.0, 386.0, 161.0, 386.0, 162.0, 386.0, 164.0, 386.0, 166.0, 386.0, 169.0, 384.0, 170.0, 383.0, 172.0, 382.0, 173.0, 381.0, 174.0, 380.0, 174.0, 380.0, 175.0, 378.0, 175.0, 377.0, 175.0, 377.0, 176.0] -> [0, 0, 0, 1, 0]
[434.0, 154.0, 433.0, 154.0, 432.0, 154.0, 432.0, 153.0, 431.0, 153.0, 427.0, 152.0, 418.0, 151.0, 406.0, 149.0, 392.0, 149.0, 377.0, 148.0, 364.0, 148.0, 353.0, 148.0, 345.0, 148.0, 338.0, 148.0, 334.0, 149.0, 331.0, 151.0, 327.0, 154.0, 323.0, 159.0, 319.0, 165.0, 314.0, 172.0, 311.0, 178.0, 308.0, 185.0, 306.0, 192.0, 305.0, 197.0, 305.0, 201.0, 305.0, 204.0, 306.0, 206.0, 307.0, 209.0, 311.0, 212.0, 322.0, 221.0, 326.0, 224.0, 334.0, 228.0, 341.0, 231.0, 355.0, 235.0, 361.0, 235.0, 366.0, 235.0, 369.0, 235.0, 373.0, 235.0, 375.0, 235.0, 378.0, 235.0, 380.0, 235.0, 382.0, 234.0, 383.0, 233.0, 386.0, 233.0, 387.0, 232.0, 384.0, 232.0, 380.0, 231.0, 373.0, 231.0, 364.0, 231.0, 352.0, 231.0, 340.0, 232.0, 325.0, 234.0, 311.0, 238.0, 299.0, 242.0, 287.0, 247.0, 277.0, 251.0, 269.0, 255.0, 263.0, 259.0, 256.0, 264.0, 252.0, 268.0, 249.0, 273.0, 246.0, 276.0, 244.0, 282.0, 244.0, 285.0, 243.0, 291.0, 243.0, 299.0, 243.0, 303.0, 243.0, 306.0, 243.0, 310.0, 244.0, 315.0, 247.0, 319.0, 250.0, 323.0, 255.0, 328.0, 261.0, 334.0, 271.0, 341.0, 280.0, 346.0, 293.0, 352.0, 305.0, 357.0, 321.0, 361.0, 337.0, 365.0, 355.0, 367.0, 371.0, 367.0, 386.0, 367.0, 397.0, 367.0, 408.0, 366.0, 417.0, 363.0, 422.0, 361.0, 427.0, 359.0, 429.0, 359.0, 431.0, 358.0] -> [0, 0, 0, 0, 1]
[398.0, 346.0, 398.0, 345.0, 398.0, 344.0, 398.0, 343.0, 398.0, 341.0, 398.0, 339.0, 397.0, 337.0, 395.0, 334.0, 393.0, 328.0, 390.0, 322.0, 387.0, 315.0, 383.0, 308.0, 380.0, 302.0, 377.0, 298.0, 374.0, 295.0, 371.0, 291.0, 366.0, 286.0, 360.0, 282.0, 347.0, 273.0, 340.0, 269.0, 334.0, 265.0, 327.0, 262.0, 321.0, 261.0, 314.0, 260.0, 309.0, 260.0, 303.0, 260.0, 299.0, 260.0, 296.0, 262.0, 292.0, 264.0, 290.0, 268.0, 286.0, 272.0, 283.0, 276.0, 279.0, 282.0, 277.0, 287.0, 276.0, 290.0, 276.0, 293.0, 276.0, 296.0, 276.0, 299.0, 277.0, 303.0, 281.0, 309.0, 289.0, 315.0, 299.0, 322.0, 307.0, 327.0, 316.0, 332.0, 321.0, 334.0, 327.0, 334.0, 331.0, 334.0, 340.0, 332.0, 347.0, 325.0, 355.0, 317.0, 366.0, 305.0, 376.0, 291.0, 385.0, 279.0, 393.0, 269.0, 401.0, 258.0, 407.0, 249.0, 414.0, 239.0, 421.0, 231.0, 427.0, 222.0, 431.0, 216.0, 436.0, 208.0, 441.0, 204.0, 446.0, 199.0, 451.0, 195.0, 454.0, 192.0, 458.0, 191.0, 461.0, 191.0, 463.0, 191.0, 465.0, 191.0, 466.0, 191.0, 467.0, 191.0, 467.0, 192.0, 467.0, 194.0, 467.0, 195.0, 467.0, 198.0, 467.0, 199.0] -> [1, 0, 0, 0, 0]
[331.0, 351.0, 330.0, 351.0, 328.0, 351.0, 327.0, 351.0, 324.0, 351.0, 323.0, 351.0, 321.0, 351.0, 320.0, 352.0, 320.0, 353.0, 320.0, 354.0, 320.0, 355.0, 320.0, 356.0, 320.0, 357.0, 320.0, 359.0, 320.0, 360.0, 321.0, 360.0, 322.0, 361.0, 323.0, 361.0, 323.0, 362.0, 324.0, 363.0, 326.0, 363.0, 327.0, 363.0, 328.0, 363.0, 330.0, 363.0, 331.0, 363.0, 333.0, 363.0, 335.0, 363.0, 337.0, 361.0, 340.0, 357.0, 344.0, 352.0, 349.0, 343.0, 356.0, 332.0, 365.0, 315.0, 372.0, 300.0, 380.0, 285.0, 387.0, 272.0, 395.0, 256.0, 403.0, 243.0, 412.0, 229.0, 418.0, 221.0, 424.0, 215.0, 426.0, 211.0, 430.0, 208.0, 433.0, 205.0, 435.0, 204.0, 437.0, 203.0, 438.0, 203.0, 439.0, 203.0, 440.0, 203.0, 442.0, 203.0, 444.0, 205.0, 446.0, 206.0, 449.0, 208.0, 452.0, 209.0, 454.0, 212.0, 454.0, 213.0, 454.0, 215.0, 454.0, 217.0, 454.0, 219.0, 454.0, 221.0, 451.0, 224.0, 449.0, 228.0, 446.0, 231.0, 444.0, 234.0, 442.0, 235.0, 441.0, 237.0, 439.0, 238.0, 437.0, 239.0, 435.0, 239.0, 434.0, 240.0, 433.0, 240.0, 432.0, 240.0, 431.0, 240.0, 432.0, 240.0, 435.0, 240.0, 437.0, 240.0, 441.0, 240.0, 444.0, 240.0, 449.0, 240.0, 453.0, 240.0, 457.0, 241.0, 461.0, 243.0, 464.0, 246.0, 468.0, 249.0, 470.0, 252.0, 473.0, 257.0, 477.0, 260.0, 478.0, 264.0, 479.0, 268.0, 481.0, 271.0, 482.0, 276.0, 482.0, 279.0, 482.0, 282.0, 482.0, 287.0, 482.0, 291.0, 482.0, 297.0, 482.0, 302.0, 481.0, 309.0, 478.0, 316.0, 475.0, 323.0, 472.0, 331.0, 468.0, 338.0, 465.0, 345.0, 461.0, 350.0, 459.0, 353.0, 454.0, 357.0, 449.0, 361.0, 443.0, 363.0, 438.0, 365.0, 432.0, 366.0, 428.0, 367.0, 423.0, 367.0, 419.0, 367.0, 416.0, 367.0, 412.0, 367.0, 409.0, 367.0, 405.0, 367.0, 402.0, 366.0, 398.0, 362.0, 393.0, 359.0, 389.0, 351.0, 385.0, 345.0, 382.0, 338.0] -> [0, 1, 0, 0, 0]
[256.0, 131.0, 258.0, 131.0, 262.0, 133.0, 268.0, 136.0, 276.0, 141.0, 286.0, 145.0, 295.0, 150.0, 305.0, 157.0, 312.0, 162.0, 317.0, 165.0, 322.0, 170.0, 325.0, 173.0, 328.0, 176.0, 330.0, 180.0, 332.0, 184.0, 335.0, 190.0, 337.0, 195.0, 342.0, 207.0, 344.0, 215.0, 347.0, 225.0, 349.0, 233.0, 351.0, 242.0, 353.0, 250.0, 355.0, 257.0, 356.0, 263.0, 357.0, 271.0, 358.0, 279.0, 358.0, 286.0, 359.0, 291.0, 359.0, 295.0, 359.0, 297.0, 359.0, 299.0, 359.0, 300.0, 359.0, 301.0, 358.0, 301.0, 357.0, 302.0, 356.0, 303.0, 354.0, 304.0, 352.0, 305.0, 350.0, 307.0, 348.0, 308.0, 346.0, 308.0, 343.0, 309.0, 340.0, 309.0, 336.0, 309.0, 331.0, 308.0, 326.0, 305.0, 320.0, 302.0, 315.0, 299.0, 307.0, 291.0, 303.0, 285.0, 300.0, 279.0, 298.0, 273.0, 296.0, 268.0, 296.0, 259.0, 296.0, 248.0, 296.0, 234.0, 297.0, 219.0, 300.0, 206.0, 302.0, 193.0, 305.0, 180.0, 307.0, 168.0, 309.0, 157.0, 312.0, 148.0, 315.0, 139.0, 317.0, 132.0, 319.0, 125.0, 321.0, 120.0, 323.0, 115.0, 324.0, 109.0, 324.0, 104.0, 325.0, 100.0, 325.0, 94.0, 325.0, 91.0, 325.0, 90.0, 325.0, 89.0, 325.0, 88.0, 325.0, 87.0, 325.0, 88.0, 324.0, 89.0, 323.0, 92.0, 323.0, 95.0, 323.0, 97.0, 323.0, 99.0, 323.0, 101.0, 323.0, 103.0, 323.0, 104.0, 323.0, 105.0, 324.0, 107.0, 324.0, 108.0, 326.0, 110.0, 327.0, 111.0, 329.0, 112.0, 332.0, 115.0, 335.0, 116.0, 337.0, 116.0, 340.0, 116.0, 342.0, 116.0, 343.0, 116.0, 345.0, 116.0, 346.0, 116.0, 347.0, 115.0, 347.0, 114.0, 349.0, 113.0, 350.0, 110.0, 351.0, 108.0, 351.0, 107.0, 351.0, 106.0] -> [0, 0, 1, 0, 0]
[320.0, 268.0, 318.0, 266.0, 311.0, 259.0, 301.0, 253.0, 286.0, 245.0, 272.0, 241.0, 259.0, 237.0, 246.0, 236.0, 236.0, 236.0, 229.0, 237.0, 223.0, 240.0, 219.0, 243.0, 216.0, 246.0, 212.0, 251.0, 208.0, 260.0, 205.0, 268.0, 203.0, 275.0, 203.0, 282.0, 202.0, 287.0, 202.0, 293.0, 202.0, 298.0, 203.0, 305.0, 206.0, 312.0, 211.0, 320.0, 216.0, 327.0, 222.0, 333.0, 230.0, 340.0, 238.0, 345.0, 249.0, 349.0, 258.0, 352.0, 268.0, 352.0, 277.0, 350.0, 284.0, 346.0, 293.0, 340.0, 302.0, 330.0, 312.0, 315.0, 326.0, 293.0, 340.0, 269.0, 352.0, 241.0, 363.0, 215.0, 374.0, 192.0, 382.0, 172.0, 387.0, 159.0, 392.0, 148.0, 396.0, 141.0, 400.0, 135.0, 402.0, 133.0, 408.0, 129.0, 411.0, 128.0, 415.0, 128.0, 418.0, 128.0, 422.0, 129.0, 427.0, 132.0, 428.0, 133.0, 430.0, 135.0, 431.0, 137.0, 432.0, 139.0, 432.0, 141.0, 432.0, 144.0, 432.0, 146.0, 431.0, 148.0, 429.0, 151.0, 427.0, 153.0, 425.0, 155.0, 423.0, 156.0, 422.0, 157.0, 420.0, 158.0, 419.0, 158.0, 418.0, 158.0, 417.0, 158.0] -> [0, 0, 0, 1, 0]
[429.0, 172.0, 429.0, 170.0, 427.0, 169.0, 423.0, 166.0, 412.0, 161.0, 392.0, 156.0, 368.0, 151.0, 345.0, 148.0, 325.0, 147.0, 309.0, 147.0, 296.0, 148.0, 285.0, 153.0, 275.0, 157.0, 267.0, 162.0, 261.0, 167.0, 255.0, 173.0, 250.0, 180.0, 246.0, 187.0, 243.0, 195.0, 241.0, 203.0, 240.0, 213.0, 240.0, 222.0, 240.0, 229.0, 240.0, 235.0, 243.0, 239.0, 248.0, 244.0, 256.0, 251.0, 267.0, 259.0, 280.0, 267.0, 293.0, 275.0, 302.0, 282.0, 312.0, 287.0, 319.0, 292.0, 325.0, 294.0, 331.0, 294.0, 334.0, 295.0, 338.0, 295.0, 340.0, 295.0, 342.0, 295.0, 344.0, 295.0, 346.0, 295.0, 346.0, 294.0, 347.0, 294.0, 346.0, 293.0, 344.0, 292.0, 342.0, 291.0, 339.0, 290.0, 333.0, 288.0, 325.0, 285.0, 315.0, 283.0, 304.0, 282.0, 291.0, 281.0, 280.0, 281.0, 270.0, 281.0, 260.0, 282.0, 252.0, 284.0, 245.0, 288.0, 237.0, 292.0, 230.0, 297.0, 221.0, 305.0, 215.0, 311.0, 210.0, 316.0, 206.0, 322.0, 202.0, 327.0, 198.0, 333.0, 195.0, 339.0, 192.0, 346.0, 190.0, 354.0, 188.0, 363.0, 187.0, 371.0, 186.0, 377.0, 186.0, 381.0, 186.0, 384.0, 187.0, 387.0, 189.0, 389.0, 194.0, 393.0, 204.0, 400.0, 220.0, 409.0, 244.0, 421.0, 267.0, 432.0, 292.0, 440.0, 316.0, 446.0, 340.0, 452.0, 358.0, 454.0, 376.0, 456.0, 393.0, 457.0, 405.0, 457.0, 415.0, 457.0, 425.0, 457.0, 432.0, 455.0, 436.0, 453.0, 440.0, 451.0, 441.0, 450.0, 442.0, 450.0] -> [0, 0, 0, 0, 1]
[424.0, 348.0, 424.0, 347.0, 424.0, 346.0, 424.0, 345.0, 423.0, 343.0, 423.0, 341.0, 423.0, 338.0, 422.0, 334.0, 420.0, 327.0, 417.0, 319.0, 414.0, 309.0, 409.0, 299.0, 406.0, 288.0, 401.0, 279.0, 395.0, 268.0, 391.0, 260.0, 385.0, 251.0, 380.0, 245.0, 375.0, 239.0, 370.0, 233.0, 364.0, 228.0, 355.0, 221.0, 345.0, 216.0, 334.0, 210.0, 325.0, 206.0, 312.0, 202.0, 300.0, 200.0, 279.0, 198.0, 271.0, 198.0, 264.0, 198.0, 258.0, 201.0, 251.0, 206.0, 249.0, 208.0, 245.0, 215.0, 240.0, 223.0, 236.0, 235.0, 233.0, 248.0, 232.0, 260.0, 232.0, 268.0, 232.0, 277.0, 234.0, 284.0, 237.0, 294.0, 242.0, 302.0, 246.0, 310.0, 253.0, 317.0, 258.0, 323.0, 265.0, 329.0, 273.0, 335.0, 280.0, 339.0, 288.0, 342.0, 295.0, 344.0, 301.0, 345.0, 306.0, 346.0, 311.0, 346.0, 316.0, 346.0, 320.0, 346.0, 326.0, 343.0, 332.0, 339.0, 340.0, 333.0, 359.0, 310.0, 370.0, 296.0, 382.0, 281.0, 392.0, 269.0, 400.0, 258.0, 407.0, 248.0, 413.0, 240.0, 417.0, 232.0, 422.0, 224.0, 426.0, 217.0, 430.0, 210.0, 436.0, 203.0, 441.0, 193.0, 446.0, 186.0, 450.0, 180.0, 454.0, 175.0, 459.0, 172.0, 462.0, 170.0, 467.0, 168.0, 470.0, 168.0, 473.0, 168.0, 475.0, 168.0, 476.0, 168.0, 478.0, 168.0, 480.0, 170.0, 480.0, 172.0, 481.0, 175.0, 481.0, 176.0, 481.0, 178.0, 481.0, 179.0, 481.0, 181.0, 481.0, 182.0, 481.0, 183.0, 481.0, 184.0] -> [1, 0, 0, 0, 0]
[282.0, 305.0, 281.0, 305.0, 280.0, 305.0, 278.0, 305.0, 277.0, 305.0, 274.0, 305.0, 270.0, 305.0, 265.0, 307.0, 261.0, 310.0, 256.0, 314.0, 251.0, 318.0, 248.0, 321.0, 244.0, 326.0, 241.0, 331.0, 239.0, 335.0, 238.0, 340.0, 237.0, 343.0, 237.0, 346.0, 237.0, 349.0, 238.0, 353.0, 241.0, 358.0, 244.0, 362.0, 249.0, 366.0, 253.0, 371.0, 261.0, 375.0, 266.0, 377.0, 272.0, 377.0, 276.0, 377.0, 281.0, 375.0, 285.0, 371.0, 292.0, 366.0, 298.0, 359.0, 306.0, 348.0, 315.0, 327.0, 327.0, 299.0, 341.0, 266.0, 352.0, 230.0, 362.0, 197.0, 368.0, 171.0, 375.0, 151.0, 380.0, 140.0, 383.0, 133.0, 386.0, 128.0, 387.0, 127.0, 390.0, 124.0, 393.0, 123.0, 398.0, 123.0, 405.0, 123.0, 409.0, 123.0, 413.0, 123.0, 416.0, 123.0, 419.0, 124.0, 421.0, 125.0, 422.0, 127.0, 424.0, 130.0, 426.0, 133.0, 426.0, 136.0, 426.0, 141.0, 426.0, 147.0, 426.0, 152.0, 426.0, 158.0, 424.0, 161.0, 422.0, 164.0, 420.0, 167.0, 416.0, 169.0, 414.0, 171.0, 412.0, 173.0, 409.0, 175.0, 406.0, 175.0, 403.0, 176.0, 402.0, 177.0, 401.0, 178.0, 400.0, 178.0, 399.0, 178.0, 400.0, 178.0, 403.0, 178.0, 406.0, 178.0, 412.0, 178.0, 421.0, 180.0, 430.0, 184.0, 441.0, 189.0, 451.0, 195.0, 461.0, 201.0, 469.0, 208.0, 475.0, 214.0, 480.0, 219.0, 483.0, 223.0, 485.0, 228.0, 487.0, 231.0, 489.0, 238.0, 490.0, 245.0, 491.0, 253.0, 491.0, 264.0, 491.0, 273.0, 491.0, 284.0, 491.0, 295.0, 488.0, 308.0, 484.0, 320.0, 481.0, 330.0, 478.0, 340.0, 474.0, 347.0, 469.0, 356.0, 464.0, 362.0, 459.0, 367.0, 451.0, 373.0, 438.0, 379.0, 420.0, 381.0, 395.0, 381.0, 371.0, 376.0, 348.0, 367.0, 332.0, 358.0, 322.0, 352.0, 316.0, 347.0, 314.0, 345.0, 312.0, 343.0, 312.0, 341.0, 311.0, 341.0] -> [0, 1, 0, 0, 0]
[315.0, 195.0, 317.0, 195.0, 321.0, 197.0, 327.0, 201.0, 333.0, 206.0, 340.0, 213.0, 348.0, 220.0, 356.0, 229.0, 363.0, 236.0, 371.0, 246.0, 379.0, 256.0, 384.0, 267.0, 389.0, 279.0, 392.0, 288.0, 397.0, 309.0, 399.0, 322.0, 401.0, 337.0, 402.0, 347.0, 402.0, 357.0, 402.0, 362.0, 402.0, 365.0, 402.0, 368.0, 401.0, 369.0, 399.0, 370.0, 397.0, 370.0, 395.0, 370.0, 392.0, 369.0, 386.0, 361.0, 376.0, 350.0, 365.0, 333.0, 355.0, 319.0, 348.0, 306.0, 342.0, 294.0, 338.0, 283.0, 336.0, 272.0, 336.0, 263.0, 336.0, 253.0, 337.0, 245.0, 338.0, 237.0, 341.0, 226.0, 344.0, 216.0, 346.0, 208.0, 347.0, 201.0, 349.0, 194.0, 350.0, 190.0, 351.0, 187.0, 351.0, 184.0, 352.0, 182.0, 352.0, 181.0, 352.0, 180.0, 352.0, 179.0, 352.0, 180.0, 353.0, 180.0, 354.0, 180.0, 354.0, 181.0, 355.0, 181.0, 357.0, 181.0, 358.0, 181.0, 359.0, 181.0, 360.0, 181.0, 362.0, 181.0, 363.0, 180.0, 363.0, 179.0, 363.0, 178.0] -> [0, 0, 1, 0, 0]
[367.0, 317.0, 367.0, 316.0, 367.0, 315.0, 367.0, 314.0, 366.0, 313.0, 365.0, 311.0, 363.0, 308.0, 358.0, 302.0, 350.0, 294.0, 343.0, 284.0, 333.0, 275.0, 323.0, 269.0, 314.0, 263.0, 307.0, 259.0, 301.0, 257.0, 294.0, 256.0, 290.0, 256.0, 284.0, 256.0, 280.0, 256.0, 277.0, 256.0, 274.0, 259.0, 270.0, 262.0, 266.0, 267.0, 262.0, 272.0, 257.0, 278.0, 252.0, 284.0, 247.0, 292.0, 244.0, 298.0, 241.0, 302.0, 240.0, 307.0, 238.0, 315.0, 238.0, 322.0, 239.0, 329.0, 247.0, 345.0, 252.0, 351.0, 257.0, 357.0, 263.0, 363.0, 271.0, 369.0, 278.0, 375.0, 286.0, 380.0, 294.0, 383.0, 301.0, 385.0, 308.0, 387.0, 313.0, 387.0, 320.0, 387.0, 327.0, 387.0, 334.0, 385.0, 341.0, 381.0, 347.0, 377.0, 353.0, 371.0, 363.0, 357.0, 376.0, 331.0, 387.0, 306.0, 399.0, 275.0, 406.0, 253.0, 412.0, 236.0, 418.0, 219.0, 423.0, 202.0, 427.0, 190.0, 430.0, 178.0, 433.0, 167.0, 437.0, 157.0, 441.0, 147.0, 443.0, 144.0, 444.0, 141.0, 447.0, 138.0, 449.0, 135.0, 453.0, 132.0, 458.0, 127.0, 461.0, 123.0, 466.0, 121.0, 468.0, 120.0, 471.0, 119.0, 473.0, 119.0, 475.0, 119.0, 476.0, 119.0, 477.0, 119.0, 478.0, 119.0, 478.0, 120.0, 478.0, 121.0, 478.0, 122.0, 478.0, 123.0, 478.0, 124.0, 478.0, 125.0, 478.0, 126.0, 478.0, 127.0, 478.0, 128.0, 478.0, 129.0, 477.0, 130.0, 476.0, 131.0, 475.0, 131.0, 475.0, 132.0, 474.0, 132.0, 473.0, 132.0, 472.0, 133.0, 471.0, 133.0, 470.0, 133.0, 469.0, 133.0, 468.0, 133.0, 467.0, 133.0, 466.0, 133.0, 465.0, 133.0, 464.0, 133.0, 463.0, 133.0] -> [0, 0, 0, 1, 0]
[432.0, 182.0, 431.0, 182.0, 428.0, 180.0, 421.0, 177.0, 411.0, 173.0, 399.0, 168.0, 387.0, 165.0, 376.0, 164.0, 367.0, 164.0, 359.0, 164.0, 350.0, 166.0, 343.0, 169.0, 336.0, 175.0, 327.0, 181.0, 312.0, 193.0, 306.0, 200.0, 302.0, 204.0, 298.0, 208.0, 296.0, 213.0, 293.0, 217.0, 291.0, 222.0, 289.0, 228.0, 288.0, 232.0, 288.0, 235.0, 288.0, 238.0, 288.0, 241.0, 289.0, 244.0, 291.0, 247.0, 294.0, 250.0, 298.0, 254.0, 303.0, 259.0, 309.0, 264.0, 316.0, 269.0, 326.0, 274.0, 338.0, 279.0, 354.0, 285.0, 371.0, 290.0, 397.0, 297.0, 405.0, 299.0, 410.0, 300.0, 415.0, 300.0, 417.0, 300.0, 418.0, 300.0, 419.0, 300.0, 417.0, 299.0, 412.0, 298.0, 408.0, 297.0, 402.0, 295.0, 395.0, 294.0, 387.0, 294.0, 377.0, 294.0, 366.0, 294.0, 354.0, 294.0, 341.0, 296.0, 325.0, 301.0, 312.0, 305.0, 298.0, 308.0, 287.0, 311.0, 276.0, 315.0, 267.0, 318.0, 257.0, 323.0, 251.0, 327.0, 246.0, 331.0, 244.0, 333.0, 241.0, 337.0, 240.0, 341.0, 239.0, 344.0, 239.0, 347.0, 239.0, 350.0, 240.0, 353.0, 241.0, 356.0, 244.0, 359.0, 248.0, 363.0, 253.0, 369.0, 258.0, 375.0, 265.0, 381.0, 271.0, 388.0, 280.0, 393.0, 290.0, 400.0, 300.0, 405.0, 316.0, 411.0, 343.0, 419.0, 370.0, 426.0, 390.0, 428.0, 404.0, 429.0, 414.0, 429.0, 422.0, 429.0, 427.0, 429.0, 431.0, 429.0, 434.0, 429.0, 436.0, 428.0, 439.0, 426.0, 441.0, 426.0, 442.0, 426.0, 443.0, 425.0, 445.0, 425.0, 446.0, 424.0, 447.0, 424.0, 448.0, 424.0] -> [0, 0, 0, 0, 1]
[430.0, 369.0, 430.0, 368.0, 430.0, 365.0, 428.0, 361.0, 425.0, 353.0, 421.0, 342.0, 413.0, 327.0, 404.0, 304.0, 394.0, 286.0, 387.0, 271.0, 379.0, 261.0, 373.0, 253.0, 367.0, 247.0, 361.0, 242.0, 355.0, 238.0, 351.0, 236.0, 345.0, 234.0, 341.0, 233.0, 335.0, 233.0, 329.0, 233.0, 323.0, 233.0, 318.0, 236.0, 311.0, 239.0, 305.0, 243.0, 300.0, 247.0, 295.0, 252.0, 290.0, 257.0, 285.0, 264.0, 281.0, 273.0, 277.0, 280.0, 273.0, 287.0, 271.0, 294.0, 270.0, 300.0, 270.0, 304.0, 270.0, 309.0, 270.0, 315.0, 272.0, 321.0, 275.0, 327.0, 281.0, 333.0, 290.0, 341.0, 300.0, 348.0, 308.0, 355.0, 316.0, 359.0, 325.0, 362.0, 331.0, 364.0, 338.0, 364.0, 342.0, 364.0, 346.0, 364.0, 352.0, 363.0, 356.0, 359.0, 362.0, 353.0, 369.0, 344.0, 376.0, 336.0, 382.0, 327.0, 387.0, 320.0, 394.0, 311.0, 399.0, 304.0, 407.0, 294.0, 415.0, 281.0, 423.0, 269.0, 430.0, 258.0, 436.0, 248.0, 442.0, 241.0, 446.0, 234.0, 451.0, 228.0, 455.0, 222.0, 460.0, 218.0, 465.0, 213.0, 470.0, 209.0, 473.0, 206.0, 480.0, 203.0, 482.0, 202.0, 484.0, 202.0, 485.0, 202.0, 487.0, 202.0, 488.0, 202.0, 489.0, 203.0, 491.0, 204.0, 492.0, 205.0, 493.0, 206.0, 493.0, 207.0, 493.0, 208.0, 493.0, 209.0, 493.0, 210.0] -> [1, 0, 0, 0, 0]
[296.0, 392.0, 295.0, 392.0, 294.0, 392.0, 294.0, 393.0, 293.0, 394.0, 292.0, 394.0, 291.0, 395.0, 289.0, 396.0, 288.0, 398.0, 286.0, 400.0, 284.0, 402.0, 282.0, 405.0, 282.0, 407.0, 280.0, 408.0, 280.0, 409.0, 280.0, 411.0, 280.0, 412.0, 280.0, 413.0, 280.0, 414.0, 280.0, 416.0, 284.0, 417.0, 287.0, 420.0, 293.0, 422.0, 298.0, 425.0, 303.0, 427.0, 309.0, 427.0, 313.0, 428.0, 317.0, 428.0, 322.0, 428.0, 325.0, 428.0, 327.0, 424.0, 334.0, 416.0, 343.0, 397.0, 354.0, 371.0, 366.0, 343.0, 374.0, 313.0, 382.0, 289.0, 391.0, 263.0, 397.0, 242.0, 404.0, 222.0, 414.0, 201.0, 417.0, 195.0, 420.0, 192.0, 422.0, 190.0, 424.0, 189.0, 427.0, 189.0, 429.0, 189.0, 432.0, 189.0, 435.0, 189.0, 438.0, 190.0, 442.0, 192.0, 444.0, 193.0, 447.0, 195.0, 450.0, 197.0, 451.0, 199.0, 453.0, 202.0, 455.0, 206.0, 457.0, 210.0, 458.0, 214.0, 459.0, 218.0, 459.0, 221.0, 459.0, 224.0, 458.0, 228.0, 457.0, 230.0, 455.0, 233.0, 452.0, 237.0, 449.0, 240.0, 445.0, 244.0, 433.0, 253.0, 427.0, 258.0, 421.0, 262.0, 416.0, 265.0, 408.0, 269.0, 406.0, 271.0, 404.0, 272.0, 401.0, 274.0, 400.0, 274.0, 399.0, 275.0, 401.0, 275.0, 406.0, 275.0, 412.0, 275.0, 421.0, 275.0, 430.0, 275.0, 441.0, 276.0, 453.0, 279.0, 464.0, 284.0, 474.0, 287.0, 480.0, 291.0, 486.0, 294.0, 488.0, 296.0, 491.0, 300.0, 492.0, 303.0, 493.0, 305.0, 495.0, 310.0, 496.0, 313.0, 496.0, 316.0, 497.0, 320.0, 497.0, 325.0, 497.0, 328.0, 497.0, 334.0, 497.0, 340.0, 497.0, 348.0, 495.0, 355.0, 493.0, 362.0, 491.0, 369.0, 489.0, 375.0, 487.0, 379.0, 484.0, 384.0, 481.0, 389.0, 476.0, 393.0, 470.0, 396.0, 463.0, 399.0, 456.0, 401.0, 449.0, 401.0, 443.0, 401.0, 436.0, 401.0, 430.0, 401.0, 425.0, 401.0, 420.0, 401.0, 415.0, 401.0, 412.0, 399.0, 409.0, 398.0, 404.0, 396.0, 400.0, 394.0, 396.0, 391.0, 390.0, 388.0, 387.0, 386.0, 384.0, 384.0, 381.0, 382.0, 379.0, 381.0, 378.0, 380.0, 377.0, 380.0] -> [0, 1, 0, 0, 0]
[309.0, 203.0, 311.0, 203.0, 316.0, 208.0, 326.0, 216.0, 341.0, 227.0, 361.0, 241.0, 376.0, 254.0, 390.0, 266.0, 398.0, 276.0, 406.0, 285.0, 412.0, 294.0, 418.0, 302.0, 421.0, 309.0, 423.0, 316.0, 425.0, 327.0, 425.0, 340.0, 425.0, 351.0, 425.0, 360.0, 425.0, 370.0, 423.0, 376.0, 421.0, 381.0, 419.0, 386.0, 417.0, 389.0, 414.0, 393.0, 410.0, 395.0, 405.0, 397.0, 397.0, 397.0, 385.0, 397.0, 369.0, 393.0, 353.0, 384.0, 340.0, 376.0, 331.0, 368.0, 323.0, 358.0, 318.0, 348.0, 312.0, 338.0, 310.0, 327.0, 310.0, 318.0, 313.0, 299.0, 318.0, 289.0, 323.0, 279.0, 329.0, 270.0, 335.0, 260.0, 339.0, 251.0, 344.0, 240.0, 347.0, 232.0, 349.0, 223.0, 350.0, 217.0, 350.0, 211.0, 350.0, 207.0, 350.0, 204.0, 350.0, 201.0, 350.0, 199.0, 350.0, 197.0, 350.0, 194.0, 349.0, 193.0, 348.0, 191.0, 347.0, 189.0, 346.0, 187.0, 345.0, 184.0, 344.0, 181.0, 344.0, 178.0, 343.0, 177.0, 343.0, 175.0, 342.0, 175.0, 342.0, 176.0, 342.0, 178.0, 342.0, 180.0, 342.0, 182.0, 342.0, 183.0, 342.0, 184.0, 342.0, 186.0, 343.0, 188.0, 344.0, 190.0, 347.0, 193.0, 348.0, 196.0, 351.0, 198.0, 352.0, 200.0, 354.0, 202.0, 357.0, 203.0, 359.0, 205.0, 362.0, 206.0, 365.0, 206.0, 369.0, 206.0, 373.0, 206.0, 380.0, 206.0, 384.0, 206.0, 387.0, 205.0, 390.0, 202.0, 392.0, 201.0, 395.0, 199.0, 396.0, 197.0, 397.0, 194.0, 398.0, 194.0, 399.0, 193.0, 399.0, 191.0, 399.0, 190.0] -> [0, 0, 1, 0, 0]
[396.0, 318.0, 396.0, 317.0, 395.0, 315.0, 394.0, 314.0, 392.0, 311.0, 389.0, 306.0, 380.0, 298.0, 370.0, 288.0, 356.0, 277.0, 339.0, 264.0, 326.0, 257.0, 313.0, 250.0, 304.0, 246.0, 294.0, 244.0, 286.0, 243.0, 280.0, 243.0, 275.0, 244.0, 270.0, 245.0, 266.0, 249.0, 262.0, 255.0, 256.0, 265.0, 250.0, 277.0, 245.0, 290.0, 239.0, 301.0, 237.0, 309.0, 235.0, 316.0, 235.0, 323.0, 235.0, 328.0, 236.0, 334.0, 240.0, 340.0, 246.0, 347.0, 254.0, 356.0, 275.0, 373.0, 285.0, 380.0, 295.0, 384.0, 314.0, 389.0, 323.0, 389.0, 331.0, 389.0, 339.0, 387.0, 345.0, 383.0, 351.0, 378.0, 356.0, 371.0, 364.0, 358.0, 372.0, 342.0, 380.0, 325.0, 391.0, 301.0, 399.0, 277.0, 407.0, 259.0, 411.0, 247.0, 415.0, 237.0, 418.0, 231.0, 422.0, 223.0, 425.0, 214.0, 429.0, 206.0, 434.0, 195.0, 438.0, 184.0, 443.0, 174.0, 448.0, 165.0, 451.0, 158.0, 454.0, 154.0, 455.0, 150.0, 457.0, 149.0, 458.0, 147.0, 460.0, 147.0, 461.0, 146.0, 462.0, 146.0, 463.0, 146.0, 465.0, 146.0, 467.0, 146.0, 468.0, 146.0, 469.0, 146.0, 469.0, 147.0, 469.0, 149.0, 469.0, 150.0, 469.0, 152.0, 469.0, 153.0, 469.0, 155.0, 469.0, 157.0, 469.0, 158.0, 469.0, 159.0, 469.0, 160.0, 469.0, 161.0, 468.0, 162.0, 467.0, 163.0, 466.0, 163.0, 464.0, 164.0, 463.0, 165.0, 462.0, 165.0, 461.0, 165.0, 460.0, 165.0, 459.0, 165.0, 458.0, 165.0] -> [0, 0, 0, 1, 0]
[427.0, 163.0, 426.0, 162.0, 423.0, 160.0, 416.0, 157.0, 401.0, 154.0, 379.0, 148.0, 353.0, 145.0, 322.0, 142.0, 294.0, 140.0, 272.0, 140.0, 253.0, 140.0, 240.0, 142.0, 229.0, 147.0, 220.0, 153.0, 214.0, 160.0, 207.0, 167.0, 201.0, 176.0, 197.0, 184.0, 193.0, 197.0, 193.0, 201.0, 193.0, 205.0, 194.0, 211.0, 199.0, 217.0, 206.0, 225.0, 218.0, 235.0, 233.0, 247.0, 249.0, 258.0, 265.0, 267.0, 277.0, 273.0, 288.0, 279.0, 299.0, 282.0, 310.0, 284.0, 321.0, 285.0, 330.0, 285.0, 341.0, 285.0, 348.0, 285.0, 352.0, 285.0, 358.0, 284.0, 360.0, 284.0, 363.0, 284.0, 364.0, 283.0, 365.0, 283.0, 365.0, 282.0, 362.0, 281.0, 358.0, 281.0, 354.0, 280.0, 347.0, 279.0, 336.0, 279.0, 323.0, 279.0, 307.0, 279.0, 289.0, 281.0, 265.0, 285.0, 240.0, 293.0, 216.0, 301.0, 193.0, 310.0, 173.0, 318.0, 157.0, 326.0, 144.0, 333.0, 137.0, 337.0, 130.0, 342.0, 126.0, 347.0, 122.0, 353.0, 119.0, 358.0, 117.0, 364.0, 117.0, 368.0, 117.0, 372.0, 118.0, 376.0, 119.0, 379.0, 121.0, 381.0, 126.0, 385.0, 133.0, 391.0, 144.0, 397.0, 161.0, 406.0, 223.0, 431.0, 250.0, 441.0, 270.0, 447.0, 302.0, 453.0, 315.0, 454.0, 327.0, 454.0, 339.0, 452.0, 351.0, 447.0, 362.0, 443.0, 373.0, 438.0, 383.0, 434.0, 390.0, 431.0, 395.0, 428.0, 398.0, 427.0, 400.0, 427.0, 402.0, 426.0, 403.0, 426.0] -> [0, 0, 0, 0, 1]